0,0,200,2,1.5
0.1,0.1999998666666933,200.1498997750084,1.999996000001333,1.497993250338396
0.2,0.3999989333341867,200.2995982001366,1.999984000021333,1.495973002747666
0.3,0.59999640000648,200.4490939256996,1.999964000108,1.493939259410057
0.4,0.7999914666939733,200.598385602237,1.999936000341333,1.49189202262931
0.5,0.9999833334166665,200.7474718805247,1.999900000833331,1.489831294830653
0.6000000000000001,1.199971200207359,200.8963514115873,1.999856001727992,1.4877570785608
0.7000000000000001,1.399954267114851,201.04502284671,1.999804003201312,1.485669376487937
0.8,1.599931734207142,201.193484837451,1.999744005461287,1.483568191401722
0.9,1.799902801574628,201.3417360356534,1.999676008747906,1.481453526213271
1,1.999866669333308,201.4897750934578,1.999600013333156,1.479325383955148
1.1,2.199822537627977,201.6376006633139,1.999516019521018,1.477183767781354
1.2,2.399769606635429,201.7852113979926,1.999424027647469,1.475028680967318
1.3,2.599707076567654,201.932605950599,1.999324038080475,1.472860126909877
1.4,2.799634147675039,202.0797829745837,1.999216051219995,1.470678109127268
1.5,2.999550020249566,202.2267411237549,1.999100067497975,1.468482631259107
1.6,3.199453894628012,202.3734790522911,1.998976087378351,1.466273697066378
1.7,3.399344971195145,202.5199954147533,1.998844111357042,1.464051310431408
1.8,3.599222450386926,202.666288866096,1.998704139961954,1.461815475357854
1.9,3.799085532693704,202.8123580616809,1.99855617375297,1.459566195970681
2,3.998933418663416,202.9582016572878,1.998400213321956,1.45730347651614
2.1,4.198765308904786,203.1038183091273,1.998236259292753,1.455027321361747
2.2,4.398580404090519,203.249206673853,1.998064312321178,1.452737734996258
2.3,4.5983779049605,203.3943654085731,1.997884373095017,1.450434722029648
2.4,4.798157012324993,203.5392931708631,1.997696442334028,1.448118287193081
2.5,4.997916927067833,203.6839886187776,1.997500520789933,1.445788435338887
2.6,5.19765685014963,203.8284504108626,1.997296609246418,1.443445171440532
2.7,5.397375982610956,203.9726772061673,1.997084708519129,1.441088500592592
2.8,5.597073525575548,204.1166676642565,1.996864819455669,1.438718428010721
2.9,5.796748680253501,204.2604204452227,1.996636942935593,1.436334959031618
3,5.996400647944459,204.4039342096981,1.996401079870408,1.433938099113
3.1,6.196028630040824,204.5472076188665,1.996157231203566,1.431527853833566
3.2,6.395631828030929,204.690239334476,1.99590539791046,1.429104228892963
3.3,6.59520944350225,204.8330280188503,1.995645580998423,1.426667230111749
3.4,6.79476067814459,204.9755723349015,1.995377781506724,1.424216863431361
3.5,6.994284733753277,205.1178709461418,1.995102000506559,1.421753134914074
3.6,7.193780812232355,205.2599225166958,1.994818239101052,1.419276050742962
3.7,7.393248115597776,205.401725711312,1.994526498425249,1.416785617221861
3.8,7.592685845980592,205.5432791953758,1.994226779646111,1.414281840775327
3.9,7.792093205630148,205.6845816349209,1.993919083962514,1.411764727948594
4,7.991469396917269,205.8256316966416,1.993603412605239,1.409234285407531
4.100000000000001,8.19081362233746,205.9664280479047,1.993279766836972,1.406690519938598
4.2,8.390125084514082,206.1069693567618,1.992948147952295,1.4041334384488
4.3,8.58940298620155,206.2472542919612,1.992608557277684,1.401563047965645
4.4,8.788646530288531,206.3872815229599,1.9922609961715,1.398979355637091
4.5,8.987854919801103,206.5270497199359,1.991905466023989,1.396382368731502
4.600000000000001,9.187027357905986,206.6665575537998,1.991541968257268,1.393772094637594
4.7,9.386163047913683,206.8058036962073,1.991170504325331,1.391148540864391
4.800000000000001,9.585261193281704,206.9447868195709,1.990791075714031,1.388511715041167
4.9,9.784320997617732,207.0835055970721,1.990403683941082,1.385861624917399
5,9.983341664682815,207.2219587026732,1.990008330556052,1.383198278362707
5.100000000000001,10.18232239839455,207.3601448111298,1.989605017140352,1.380521683366804
5.2,10.38126240283027,207.4980625980021,1.989193745307237,1.377831848039439
5.300000000000001,10.58016088223022,207.6357107396674,1.988774516701793,1.375128780610339
5.4,10.77901704100075,207.7730879133322,1.988347333000934,1.372412489429152
5.5,10.97783008371748,207.9101927970437,1.987912195913394,1.369682982965386
5.600000000000001,11.17659921512852,208.0470240697021,1.987469107179721,1.366940269808351
5.7,11.3753236401576,208.1835804110725,1.987018068572268,1.364184358667097
5.800000000000001,11.57400256390729,208.3198605017969,1.986559081895192,1.361415258370351
5.9,11.77263519166215,208.4558630234062,1.986092148984436,1.358632977866453
6,11.97122072889194,208.591586658332,1.985617271707733,1.355837526223293
6.100000000000001,12.16975838125478,208.727030089919,1.98513445196459,1.353028912628245
6.2,12.36824735460031,208.8621920024361,1.984643691686286,1.350207146388099
6.300000000000001,12.56668685497293,208.9970710810891,1.984144992835861,1.347372236928995
6.4,12.76507608861487,209.1316660120326,1.983638357408111,1.344524193796352
6.5,12.96341426196949,209.2659754823813,1.983123787429576,1.341663026654801
6.600000000000001,13.16170058168434,209.3999981802226,1.982601284958535,1.338788745288111
6.7,13.35993425461441,209.5337327946281,1.982070852084999,1.335901359599118
6.800000000000001,13.55811448782528,209.6671780156656,1.981532490930696,1.333000879609654
6.9,13.75624048859627,209.8003325344112,1.980986203649072,1.330087315460468
7,13.95431146442365,209.9331950429609,1.980431992425274,1.327160677411157
7.100000000000001,14.15232662302378,210.0657642344426,1.979869859476148,1.324220975840082
7.2,14.35028517233628,210.1980388030279,1.979299807050223,1.321268221244298
7.300000000000001,14.54818632052723,210.3300174439443,1.978721837427709,1.31830242423947
7.4,14.7460292759923,210.4616988534866,1.978135952920484,1.315323595559797
7.5,14.94381324735992,210.5930817290288,1.977542155872084,1.31233174605793
7.600000000000001,15.14153744349448,210.7241647690363,1.976940448657698,1.30932688670489
7.7,15.33920107349945,210.8549466730776,1.976330833684153,1.306309028589984
7.800000000000001,15.53680334672059,210.9854261418357,1.975713313389909,1.303278182920724
7.9,15.73434347274905,211.1156018771206,1.975087890245045,1.300234361022742
8,15.9318206614246,211.2454725818806,1.974454566751254,1.297177574339699
8.1,16.12923412283874,211.3750369602143,1.973813345441828,1.294107834433205
8.200000000000001,16.3265830673379,211.5042937173823,1.973164228881652,1.291025152982727
8.300000000000001,16.52386670552656,211.6332415598192,1.972507219667192,1.287929541785499
8.4,16.72108424827043,211.7618791951449,1.971842320426483,1.284821012756434
8.5,16.9182349066996,211.890205332177,1.971169533819122,1.281699577928031
8.6,17.1153178922117,212.0182186809421,1.970488862536253,1.278565249450286
8.700000000000001,17.31233241647506,212.1459179526875,1.969800309300561,1.275418039590594
8.800000000000001,17.50927769143183,212.2733018598935,1.969103876866259,1.272257960733656
8.9,17.70615292930118,212.4003691162843,1.968399568019075,1.269085025381387
9,17.90295734258242,212.5271184368404,1.967687385576243,1.265899246152814
9.1,18.09969014405816,212.65354853781,1.966967332386492,1.262700635783981
9.200000000000001,18.29635054679746,212.7796581367208,1.966239411330035,1.259489207127852
9.300000000000001,18.49293776415897,212.9054459523915,1.965503625318554,1.256264973154207
9.4,18.68945100979407,213.0309107049438,1.964759977295192,1.253027946949548
9.5,18.88588949765006,213.1560511158137,1.964008470234541,1.249778141716987
9.600000000000001,19.08225244197324,213.2808659077635,1.963249107142627,1.246515570776154
9.700000000000001,19.27853905731209,213.4053538048931,1.962481891056903,1.243240247563084
9.800000000000001,19.47474855852042,213.529513532652,1.961706825046231,1.23995218563012
9.9,19.67088016076048,213.6533438178506,1.960923912210874,1.236651398645799
10,19.86693307950612,213.7768433886721,1.960133155682483,1.233337900394753
10.1,20.06290653054594,213.9000109746839,1.959334558624083,1.230011704777592
10.2,20.25879972998639,214.0228453068492,1.958528124230061,1.226672825810804
10.3,20.45461189425492,214.1453451175387,1.957713855726153,1.223321277626638
10.4,20.65034224010315,214.2675091405421,1.956891756369433,1.219957074472994
10.5,20.84598998460995,214.3893361110796,1.956061829448297,1.216580230713315
10.6,21.04155434518462,214.5108247658137,1.95522407828245,1.213190760826467
10.7,21.23703453956996,214.6319738428604,1.954378506222898,1.209788679406631
10.8,21.43242978584545,214.7527820818008,1.953525116651926,1.206374001163181
10.9,21.62773930243038,214.8732482236929,1.952663912983093,1.202946740920575
11,21.82296230808693,214.9933710110828,1.951794898661211,1.199506913618231
11.1,22.01809802192335,215.1131491880163,1.950918077162337,1.196054534310411
11.2,22.21314566339704,215.2325815000502,1.950033451993755,1.192589618166102
11.3,22.40810445231769,215.3516666942642,1.949141026693966,1.189112180468896
11.4,22.60297360885042,215.470403519272,1.948240804832669,1.185622236616865
11.5,22.79775235351884,215.5887907252327,1.94733279001075,1.182119802122442
11.6,22.99243990720825,215.7068270638625,1.946416985860267,1.178604892612295
11.7,23.18703549116868,215.8245112884459,1.945493396044436,1.175077523827202
11.8,23.38153832701807,215.9418421538472,1.944562024257615,1.171537711621929
11.9,23.57594763674532,216.0588184165218,1.94362287422529,1.167985471965099
12,23.77026264271346,216.1754388345277,1.942675949704059,1.164420820939063
12.1,23.96448256766272,216.291702167537,1.94172125448162,1.16084377473978
12.2,24.15860663471367,216.4076071768468,1.940758792376752,1.157254349676673
12.3,24.35263406737029,216.5231526253908,1.939788567239302,1.153652562172514
12.4,24.54656408952311,216.638337277751,1.938810582950169,1.150038428763277
12.5,24.74039592545229,216.7531599001682,1.937824843421289,1.146411966098016
12.6,24.93412879983077,216.867619260554,1.93683135259562,1.142773190938727
12.7,25.12776193772729,216.9817141285018,1.935830114447123,1.139122120160212
12.8,25.32129456460957,217.0954432752982,1.934821132980749,1.135458770749944
12.9,25.51472590634734,217.208805473934,1.933804412232423,1.131783159807933
13,25.70805518921551,217.3217994991157,1.932779956269026,1.12809530454658
13.1,25.9012816398972,217.4344241272767,1.931747769188382,1.124395222290547
13.2,26.09440448548687,217.5466781365884,1.930707855119236,1.120682930476613
13.3,26.28742295349339,217.6585603069716,1.929660218221244,1.116958446653531
13.4,26.48033627184314,217.7700694201073,1.928604862684952,1.113221788481889
13.5,26.67314366888311,217.8812042594486,1.927541792731781,1.109472973733965
13.6,26.86584437338398,217.991963610231,1.926471012614009,1.105712020293586
13.7,27.05843761454317,218.102346259484,1.925392526614755,1.101938946155976
13.8,27.25092262198798,218.2123509960423,1.924306339047962,1.09815376942762
13.9,27.44329862577863,218.3219766105569,1.923212454258378,1.094356508326107
14,27.63556485641138,218.4312218955059,1.922110876621542,1.090547181179989
14.1,27.82772054482155,218.540085645206,1.921001610543762,1.086725806428628
14.2,28.01976492238663,218.648566655823,1.919884660462101,1.082892402622047
14.3,28.21169722092939,218.7566637253837,1.918760030844358,1.079046988420779
14.4,28.40351667272089,218.8643756537863,1.91762772618905,1.075189582595716
14.5,28.59522251048355,218.9717012428113,1.916487751025394,1.071320204027952
14.6,28.78681396739432,219.0786392961334,1.91534010991329,1.067438871708635
14.7,28.97829027708759,219.1851886193313,1.914184807443299,1.063545604738806
14.8,29.16965067365839,219.2913480198997,1.913021848236631,1.059640422329246
14.9,29.36089439166538,219.3971163072597,1.911851236945121,1.055723343800321
15,29.55202066613396,219.5024922927699,1.910672978251212,1.051794388581817
15.1,29.74302873255928,219.6074747897376,1.909487076867938,1.047853576212788
15.2,29.93391782690932,219.712062613429,1.908293537538902,1.043900926341394
15.3,30.12468718562797,219.8162545810809,1.90709236503826,1.039936458724737
15.4,30.31533604563804,219.9200495119111,1.905883564170701,1.035960193228702
15.5,30.50586364434435,220.0234462271297,1.904667139771427,1.031972149827794
15.6,30.69626921963676,220.1264435499492,1.903443096706133,1.027972348604973
15.7,30.88655200989322,220.2290403055962,1.90221143987099,1.023960809751491
15.8,31.07671125398281,220.3312353213217,1.900972174192624,1.01993755356672
15.9,31.26674619126884,220.433027426412,1.899725304628096,1.015902600457993
16,31.45665606161178,220.5344154521995,1.898470836164882,1.011855970940434
16.1,31.64644010537241,220.6353982320737,1.897208773820855,1.007797685636785
16.2,31.83609756341483,220.7359746014916,1.895939122644262,1.00372776527724
16.3,32.02562767710943,220.8361433979885,1.894661887713706,0.9996462306992737
16.4,32.21502968833605,220.9359034611888,1.893377074138126,0.9955531028474687
16.5,32.40430283948684,221.0352536328171,1.892084687056774,0.9914484027733443
16.6,32.59344637346948,221.1341927567079,1.890784731639196,0.9873321516351813
16.7,32.7824595337101,221.2327196788173,1.889477213085213,0.9832043706978486
16.8,32.97134156415628,221.3308332472331,1.888162136624897,0.9790650813326263
16.9,33.16009170928017,221.4285323121854,1.886839507518552,0.9749143050170306
17,33.34870921408144,221.5258157260575,1.885509331056692,0.9707520633346349
17.1,33.53719332409032,221.6226823433963,1.884171612560023,0.9665783779748923
17.2,33.72554328537061,221.719131020923,1.882826357379415,0.9623932707329563
17.3,33.91375834452274,221.8151606175434,1.881473570895889,0.958196763509499
17.4,34.10183774868671,221.9107699943589,1.880113258520587,0.9539888783105314
17.5,34.28978074554514,222.0059580146766,1.878745425694758,0.9497696372472197
17.6,34.47758658332631,222.10072354402,1.877370077889731,0.9455390625357043
17.7,34.66525451080712,222.1950654501394,1.875987220606896,0.9412971764969121
17.8,34.85278377731611,222.2889826030225,1.87459685937768,0.9370440015563746
17.9,35.04017363273646,222.3824738749048,1.873198999763525,0.9327795602440402
18,35.22742332750899,222.47553814028,1.87179364735587,0.9285038751940879
18.1,35.4145321126352,222.5681742759102,1.87038080777612,0.9242169691447384
18.2,35.60149923968016,222.6603811608368,1.868960486675634,0.9199188649380663
18.3,35.78832396077565,222.7521576763906,1.867532689735692,0.915609585519809
18.4,35.975005528623,222.843502706202,1.866097422667482,0.9112891539391781
18.5,36.1615431964962,222.9344151362114,1.864654691212069,0.9069575933486649
18.6,36.34793621824484,223.0248938546798,1.863204501140377,0.9026149270038495
18.7,36.53418384829706,223.1149377521988,1.861746858253166,0.8982611782632075
18.8,36.7202853416626,223.2045457217011,1.860281768381003,0.8938963705879139
18.9,36.90623995393575,223.2937166584706,1.858809237384247,0.8895205275416489
19,37.09204694129827,223.3824494601525,1.85732927115302,0.885133672790402
19.1,37.27770556052249,223.470743026764,1.855841875607185,0.8807358301022729
19.2,37.46321506897418,223.558596260704,1.854347056696322,0.8763270233472753
19.3,37.64857472461553,223.6460080667635,1.852844820399705,0.8719072764971365
19.4,37.83378378600819,223.7329773521359,1.851335172726277,0.8674766136250973
19.5,38.01884151231614,223.8195030264268,1.849818119714626,0.8630350589057125
19.6,38.20374716330874,223.9055840016645,1.848293667432963,0.8585826366146472
19.7,38.38849999936363,223.9912191923098,1.846761821979094,0.8541193711284747
19.8,38.5730992814697,224.0764075152662,1.8452225894804,0.8496452869244742
19.9,38.75754427123009,224.1611478898899,1.843675976093808,0.845160408580423
20,38.94183423086506,224.2454392380001,1.84212198800577,0.8406647607743951
20.1,39.12596842321502,224.3292804838886,1.840560631432236,0.8361583682845506
20.2,39.30994611174347,224.41267055433,1.838991912618631,0.8316412559889315
20.3,39.49376656053987,224.495608378592,1.837415837839827,0.8271134488652524
20.4,39.6774290343227,224.5780928884446,1.835832413400121,0.822574971990691
20.5,39.86093279844229,224.6601230181709,1.83424164563321,0.8180258505416782
20.6,40.04427711888383,224.7416977045762,1.832643540902162,0.8134661097936883
20.7,40.22746126227031,224.8228158869987,1.831038105599394,0.8088957751210248
20.8,40.41048449586535,224.9034765073186,1.829425346146645,0.8043148719966112
20.9,40.5933460875763,224.9836785099685,1.82780526899495,0.7997234259917736
21,40.77604530595701,225.0634208419431,1.826177880624617,0.7951214627760286
21.1,40.95858142021089,225.1427024528088,1.824543187545195,0.7905090081168678
21.2,41.14095370019368,225.2215222947138,1.822901196295457,0.7858860878795404
21.3,41.32316141641654,225.2998793223975,1.821251913443364,0.7812527280268372
21.4,41.50520384004882,225.3777724932005,1.819595345586045,0.7766089546188717
21.5,41.68708024292108,225.4552007670745,1.81793149934977,0.7719547938128622
21.6,41.86878989752795,225.5321631065915,1.816260381389922,0.7672902718629107
21.7,42.05033207703106,225.6086584769539,1.81458199839097,0.7626154151197835
21.8,42.23170605526192,225.6846858460038,1.812896357066443,0.7579302500306894
21.9,42.41291110672488,225.7602441842332,1.811203464158906,0.7532348031390562
22,42.59394650659996,225.8353324647928,1.809503326439927,0.7485291010843091
22.1,42.77481153074581,225.9099496635023,1.807795950710055,0.7438131706016449
22.2,42.95550545570256,225.9840947588598,1.80608134379879,0.739087038521809
22.3,43.13602755869476,226.0577667320509,1.804359512564558,0.7343507317708673
22.4,43.31637711763426,226.1309645669588,1.802630463894682,0.7296042773699812
22.5,43.49655341112302,226.2036872501736,1.800894204705354,0.7248477024351795
22.6,43.67655571845614,226.2759337710016,1.799150741941608,0.720081034177129
22.7,43.85638331962463,226.347703121475,1.797400082577293,0.7153042999009067
22.8,44.0360354953183,226.4189942963611,1.795642233615045,0.7105175270057693
22.9,44.21551152692872,226.4898062931719,1.793877202086256,0.7057207429849208
23,44.39481069655198,226.5601381121734,1.79210499505105,0.7009139754252831
23.1,44.57393228699165,226.6299887563949,1.790325619598254,0.6960972520072607
23.2,44.7528755817616,226.6993572316385,1.788539082845367,0.6912706005045091
23.3,44.93163986508889,226.7682425464884,1.786745391938533,0.6864340487836996
23.4,45.11022442191663,226.8366437123199,1.784944554052514,0.681587624804284
23.5,45.28862853790683,226.9045597433089,1.783136576390658,0.6767313566182591
23.6,45.46685149944327,226.9719896564414,1.781321466184874,0.6718652723699285
23.7,45.64489259363433,227.038932471522,1.779499230695601,0.6669894002956671
23.8,45.82275110831587,227.1053872111838,1.777669877211777,0.6621037687236806
23.9,46.00042633205408,227.1713529008973,1.775833413050815,0.657208406073766
24,46.17791755414829,227.2368285689796,1.773989845558568,0.6523033408570733
24.1,46.35522406463386,227.3018132466032,1.772139182109305,0.6473886016758623
24.2,46.53234515428498,227.3663059678056,1.770281430105676,0.6424642172232622
24.3,46.70928011461752,227.4303057694981,1.768416596978687,0.6375302162830285
24.4,46.88602823789188,227.493811691475,1.766544690187668,0.6325866277292983
24.5,47.0625888171158,227.5568227764223,1.764665717220243,0.6276334805263482
24.6,47.23896114604722,227.619338069927,1.762779685592302,0.6226708037283472
24.7,47.41514451919702,227.6813566204861,1.76088660284797,0.617698626479112
24.8,47.59113823183198,227.7428774795154,1.758986476559574,0.6127169780118595
24.9,47.76694157997746,227.8038997013585,1.757079314327617,0.6077258876489593
25,47.9425538604203,227.8644223432956,1.755165123780746,0.6027253848016854
25.1,48.11797437071163,227.9244444655527,1.753243912575719,0.5977154989699676
25.2,48.29320240916964,227.9839651313097,1.75131568839738,0.5926962597421398
25.3,48.4682372748824,228.0429834067103,1.749380458958622,0.587667696794692
25.4,48.64307826771068,228.10149836087,1.747438232000361,0.5826298398920156
25.5,48.81772468829075,228.1595090658852,1.745489015291503,0.5775827188861533
25.6,48.99217583803716,228.2170145968417,1.74353281662891,0.5725263637165448
25.7,49.16643101914553,228.2740140318238,1.741569643837375,0.5674608044097732
25.8,49.34048953459539,228.3305064519228,1.739599504769587,0.5623860710793104
25.9,49.5143506881529,228.3864909412455,1.7376224073061,0.5573021939252606
26,49.68801378437367,228.4419665869232,1.7356383593553,0.5522092032341058
26.1,49.86147812860555,228.49693247912,1.733647368853377,0.5471071293784466
26.2,50.03474302699141,228.5513877110419,1.73164944376429,0.5419960028167461
26.3,50.20780778647187,228.6053313789446,1.729644592079737,0.5368758540930696
26.4,50.38067171478813,228.6587625821427,1.727632821819121,0.5317467138368269
26.5,50.55333412048469,228.7116804230179,1.725614141029522,0.5266086127625107
26.6,50.72579431291219,228.7640840070278,1.72358855778566,0.5214615816694357
26.7,50.89805160223007,228.8159724427138,1.721556080189864,0.516305651441478
26.8,51.0701052994094,228.8673448417104,1.719516716372044,0.5111408530468116
26.9,51.24195471623563,228.9182003187526,1.71747047448965,0.5059672175376451
27,51.41359916531132,228.9685379916852,1.715417362727648,0.5007847760499584
27.1,51.58503796005889,229.0183569814706,1.713357389298483,0.4955935598032365
27.2,51.7562704147234,229.0676564121973,1.711290562442045,0.4903936001002064
27.3,51.92729584437527,229.1164354110882,1.709216890425639,0.4851849283265678
27.4,52.09811356491299,229.1646931085091,1.70713638154395,0.4799675759507279
27.5,52.26872289306592,229.2124286379765,1.705049044119011,0.4747415745235342
27.6,52.43912314639697,229.2596411361664,1.70295488650017,0.4695069556780033
27.7,52.60931364330534,229.3063297429219,1.700853917064052,0.4642637511290544
27.8,52.7792937030293,229.3524936012619,1.698746144214535,0.4590119926732379
27.9,52.94906264564882,229.3981318573888,1.696631576382705,0.4537517121884646
28,53.11861979208834,229.4432436606971,1.694510222026832,0.4484829416337346
28.1,53.28796446411953,229.4878281637812,1.69238208963233,0.443205713048865
28.2,53.45709598436391,229.5318845224432,1.690247187711727,0.4379200585542162
28.3,53.62601367629563,229.5754118957016,1.688105524804626,0.43262601035042
28.4,53.79471686424414,229.6184094457989,1.685957109477677,0.4273236007181026
28.5,53.96320487339693,229.6608763382096,1.683801950324537,0.4220128620176115
28.6,54.13147702980217,229.702811741648,1.681640055965842,0.4166938266887389
28.7,54.29953266037146,229.7442148280769,1.679471435049165,0.4113665272504449
28.8,54.46737109288252,229.7850847727143,1.677296096248987,0.4060309963005807
28.9,54.63499165598184,229.8254207540424,1.67511404826666,0.4006872665156102
29,54.80239367918735,229.8652219538147,1.672925299830374,0.3953353706503308
29.1,54.96957649289125,229.9044875570641,1.670729859695119,0.3899753415375949
29.2,55.13653942836245,229.9432167521109,1.668527736642653,0.3846072120880296
29.3,55.30328181774945,229.98140873057,1.666318939481465,0.3792310152897551
29.4,55.46980299408293,230.0190626873593,1.66410347704674,0.3738467842081036
29.5,55.63610229127838,230.0561778207069,1.661881358200327,0.3684545519853374
29.6,55.80217904413885,230.0927533321589,1.659652591830696,0.3630543518403646
29.7,55.96803258835755,230.1287884265873,1.657417186852912,0.3576462170684575
29.8,56.13366226052051,230.1642823121973,1.655175152208589,0.3522301810409666
29.9,56.29906739810929,230.1992342005351,1.652926496865865,0.3468062772050357
30,56.46424733950354,230.2336433064954,1.650671229819357,0.3413745390833177
30.1,56.62920142398371,230.2675088483288,1.64840936009013,0.3359350002736855
30.2,56.7939289917337,230.3008300476495,1.646140896725661,0.3304876944489478
30.3,56.95842938384344,230.3336061294429,1.643865848799801,0.3250326553565595
30.4,57.12270194231159,230.3658363220726,1.641584225412736,0.3195699168183335
30.5,57.28674601004813,230.3975198572882,1.639296035690959,0.3140995127301522
30.6,57.45056093087702,230.4286559702325,1.637001288787225,0.3086214770616769
30.7,57.61414604953878,230.4592438994491,1.634699993880518,0.3031358438560583
30.8,57.77750071169316,230.4892828868896,1.632392160176016,0.2976426472296445
30.9,57.94062426392175,230.5187721779207,1.630077796905049,0.2921419213716892
31,58.10351605373051,230.5477110213315,1.627756913325068,0.2866337005440606
31.1,58.26617542955253,230.5760986693415,1.625429518719604,0.2811180190809457
31.2,58.42860174075054,230.6039343776067,1.623095622398232,0.2755949113885596
31.3,58.59079433761948,230.6312174052274,1.620755233696535,0.2700644119448494
31.4,58.75275257138919,230.6579470147555,1.618408361976065,0.2645265552991983
31.5,58.91447579422695,230.6841224722011,1.616055016624304,0.2589813760721317
31.6,59.07596335924009,230.7097430470401,1.613695207054631,0.2534289089550198
31.7,59.23721462047858,230.7348080122212,1.611328942706282,0.2478691887097806
31.8,59.39822893293753,230.7593166441722,1.60895623304431,0.2423022501685834
31.9,59.55900565255997,230.7832682228083,1.606577087559552,0.2367281282335483
32,59.71954413623921,230.8066620315381,1.604191515768585,0.2311468578764495
32.1,59.87984374182152,230.8294973572708,1.601799527213694,0.2255584741384145
32.2,60.03990382810872,230.8517734904233,1.59940113146283,0.2199630121296238
32.3,60.19972375486066,230.8734897249269,1.596996338109573,0.2143605070290115
32.4,60.35930288279783,230.8946453582342,1.594585156773093,0.2087509940839625
32.5,60.51864057360395,230.915239691326,1.592167597098112,0.2031345086100103
32.6,60.67773618992847,230.935272028718,1.589743668754865,0.1975110859905354
32.7,60.83658909538915,230.9547416784676,1.587313381439063,0.1918807616764615
32.8,60.99519865457457,230.9736479521807,1.584876744871851,0.1862435711859516
32.9,61.15356423304667,230.9919901650183,1.582433768799773,0.1805995501041039
33,61.31168519734338,231.0097676357034,1.57998446299473,0.1749487340826446
33.1,61.46956091498106,231.0269796865274,1.577528837253942,0.1692911588396259
33.2,61.62719075445703,231.0436256433567,1.575066901399908,0.1636268601591166
33.3,61.78457408525217,231.0597048356395,1.572598665280368,0.1579558738908963
33.4,61.94171027783333,231.0752165964124,1.570124138768264,0.1522782359501483
33.5,62.09859870365597,231.0901602623064,1.567643331761698,0.14659398231715
33.6,62.25523873516659,231.1045351735542,1.565156254183896,0.140903149036966
33.7,62.4116297458053,231.1183406739958,1.562662915983164,0.1352057722191375
33.8,62.56777111000822,231.1315761110858,1.560163327132851,0.1295018880373734
33.9,62.72366220321012,231.144240835899,1.55765749763131,0.1237915327292394
34,62.87930240184686,231.1563342031374,1.555145437501856,0.1180747425958455
34.1,63.03469108335782,231.1678555711361,1.552627156792725,0.1123515540015378
34.2,63.18982762618849,231.1788043018698,1.550102665577037,0.1066220033735827
34.3,63.34471140979291,231.1891797609593,1.547571973952753,0.100886127201857
34.4,63.49934181463615,231.1989813176771,1.545035092042637,0.09514396203853248
34.5,63.6537182221968,231.2082083449544,1.542492029994213,0.08939554449776288
34.6,63.80784001496943,231.2168602193865,1.539942797979726,0.08364091125536932
34.7,63.96170657646708,231.2249363212399,1.5373874061961,0.07788009904852555
34.8,64.1153172912237,231.2324360344573,1.534825864864899,0.07211314467544283
34.9,64.26867154479665,231.2393587466646,1.532258184232285,0.06634008499505184
35,64.42176872376912,231.2457038491766,1.529684374568977,0.06056095692668761
35.1,64.57460821575258,231.2514707370029,1.52710444617021,0.0547757974497729
35.2,64.72718940938927,231.2566588088542,1.524518409355695,0.04898464360349797
35.3,64.87951169435463,231.2612674671479,1.521926274469575,0.04318753248650498
35.4,65.03157446135971,231.2652961180143,1.519328051880387,0.03738450125656811
35.5,65.18337710215366,231.2687441713026,1.516723751981016,0.03157558713027175
35.6,65.33491900952613,231.2716110405863,1.51411338518866,0.02576082738269514
35.7,65.48619957730966,231.2738961431695,1.511496961944782,0.0199402593470891
35.8,65.63721820038219,231.2755989000924,1.508874492715072,0.01411392041455428
35.9,65.78797427466945,231.2767187361374,1.506245987989403,0.008281848033722117
36,65.9384671971473,231.2772550798343,1.50361145828179,0.002444079710430036
36.1,66.08869636584433,231.2772073634667,1.500970914130349,-0.00339934699259814
36.2,66.23866117984397,231.2765750230771,1.498324366097252,-0.009248394456077835
36.3,66.38836103928722,231.2753574984727,1.495671824768689,-0.01510302500448601
36.4,66.53779534537485,231.273554233231,1.493013300754821,-0.02096320090638482
36.5,66.68696350036979,231.2711646747057,1.490348804689741,-0.02682888437474928
36.6,66.83586490759966,231.2681882740319,1.487678347231429,-0.03270003756728779
36.7,66.984498971459,231.2646244861313,1.485001939061712,-0.0385766225867703
36.8,67.13286509741178,231.2604727697186,1.482319590886218,-0.04445860148135583
36.9,67.28096269199368,231.255732587306,1.479631313434337,-0.05034593624491568
37,67.42879116281451,231.2504034052093,1.476937117459176,-0.05623858881736354
37.1,67.5763499185606,231.2444846935527,1.474237013737514,-0.0621365210849818
37.2,67.72363836899711,231.2379759262746,1.471531013069762,-0.06803969488074957
37.3,67.87065592497046,231.2308765811328,1.46881912627992,-0.07394807198467068
37.4,68.01740199841059,231.2231861397098,1.466101364215532,-0.07986161412410497
37.5,68.16387600233341,231.2149040874176,1.463377737747642,-0.0857802829740959
37.6,68.31007735084313,231.2060299135038,1.460648257770752,-0.09170404015770051
37.7,68.45600545913452,231.1965631110559,1.457912935202778,-0.09763284724632193
37.8,68.60165974349533,231.186503177007,1.455171780985007,-0.1035666657600371
37.9,68.74703962130863,231.1758496121407,1.452424806082053,-0.109505457167931
38,68.89214451105514,231.1646019210962,1.44967202148181,-0.1154491828884281
38.1,69.03697383231544,231.1527596123736,1.446913438195415,-0.1213978042896238
38.2,69.18152700577247,231.1403221983383,1.444149067257196,-0.1273512826896172
38.3,69.32580345321372,231.1272891952267,1.441378919724634,-0.1333095793568451
38.40000000000001,69.46980259753359,231.1136601231506,1.438603006678314,-0.139272655510416
38.5,69.61352386273568,231.0994345061027,1.435821339221887,-0.145240472320443
38.6,69.75696667393515,231.0846118719606,1.433033928482016,-0.1512129909083801
38.7,69.90013045736093,231.0691917524925,1.430240785608343,-0.1571901723473563
38.8,70.04301464035809,231.0531736833618,1.427441921773434,-0.1631719776625102
38.90000000000001,70.18561865139007,231.0365572041316,1.424637348172741,-0.1691583678313278
39,70.32794192004101,231.0193418582694,1.421827076024555,-0.1751493037839774
39.1,70.46998387701807,231.0015271931525,1.41901111656996,-0.1811447464036486
39.2,70.61174395415357,230.9831127600718,1.416189481072792,-0.1871446565268859
39.3,70.75322158440741,230.9640981142372,1.413362180819587,-0.1931489949439306
39.40000000000001,70.89441620186923,230.9444828147817,1.410529227119543,-0.1991577223990548
39.5,71.03532724176078,230.9242664247661,1.407690631304472,-0.2051707995909029
39.6,71.17595414043808,230.9034485111838,1.404846404728753,-0.2111881871728297
39.7,71.31629633539372,230.8820286449649,1.401996558769287,-0.2172098457532399
39.8,71.45635326525911,230.8600064009811,1.399141104825456,-0.2232357358959266
39.90000000000001,71.5961243698067,230.8373813580496,1.396280054319071,-0.2292658181204124
40,71.73560908995228,230.8141530989383,1.393413418694331,-0.2353000529022906
40.1,71.87480686775714,230.7903212103695,1.390541209417773,-0.2413384006735662
40.2,72.01371714643038,230.7658852830243,1.387663437978232,-0.2473808218229949
40.3,72.15233937033105,230.7408449115474,1.38478011588679,-0.2534272766964283
40.40000000000001,72.29067298497043,230.7151996945507,1.38189125467673,-0.2594777255971533
40.5,72.42871743701426,230.6889492346182,1.378996865903494,-0.2655321287862351
40.6,72.56647217428491,230.6620931383098,1.376096961144633,-0.2715904464828633
40.7,72.70393664576362,230.6346310161655,1.373191551999762,-0.2776526388646903
40.8,72.84111030159269,230.6065624827095,1.370280650090514,-0.2837186660681775
40.90000000000001,72.97799259307769,230.5778871564546,1.367364267060493,-0.2897884881889411
41,73.11458297268959,230.5486046599059,1.364442414575227,-0.295862065282092
41.1,73.25088089406711,230.5187146195652,1.361515104322122,-0.3019393573625857
41.2,73.3868858120187,230.4882166659346,1.358582348010414,-0.3080203244055635
41.3,73.5225971825249,230.4571104335208,1.355644157371127,-0.314104926346701
41.40000000000001,73.65801446274041,230.4253955608387,1.352700544157017,-0.3201931230825517
41.5,73.79313711099627,230.3930716904158,1.349751520142534,-0.3262848744708932
41.6,73.92796458680209,230.3601384687954,1.34679709712377,-0.332380140331078
41.7,74.06249635084812,230.3265955465411,1.343837286918414,-0.3384788804443748
41.8,74.19673186500751,230.29244257824,1.340872101365701,-0.3445810545543183
41.90000000000001,74.33067059233835,230.2576792225067,1.337901552326372,-0.3506866223670588
42,74.46431199708593,230.2223051419874,1.334925651682616,-0.3567955435517063
42.1,74.59765554468483,230.1863200033629,1.331944411338034,-0.3629077777406827
42.2,74.73070070176099,230.1497234773526,1.328957843217582,-0.3690232845300676
42.3,74.863446936134,230.1125152387182,1.325965959267529,-0.3751420234799487
42.40000000000001,74.99589371681907,230.0746949662671,1.322968771455408,-0.3812639541147708
42.5,75.12804051402927,230.036262342856,1.319966291769964,-0.3873890359236859
42.6,75.25988679917759,229.9972170553947,1.316958532221113,-0.3935172283609034
42.7,75.39143204487905,229.9575587948489,1.31394550483989,-0.3996484908460385
42.8,75.52267572495288,229.9172872562443,1.310927221678399,-0.4057827827644652
42.90000000000001,75.65361731442448,229.8764021386698,1.307903694809769,-0.4119200634676666
43,75.78425628952769,229.8349031452806,1.304874936328104,-0.4180602922735852
43.1,75.91459212770681,229.7927899833021,1.301840958348433,-0.4242034284669759
43.2,76.04462430761863,229.7500623640326,1.298801773006664,-0.430349431299757
43.3,76.1743523091346,229.7067200028468,1.295757392459536,-0.4364982599913625
43.40000000000001,76.30377561334292,229.6627626191994,1.292707828884565,-0.4426498737290941
43.5,76.4328937025505,229.6181899366276,1.289653094480002,-0.4488042316684757
43.6,76.5617060602852,229.5730016827548,1.286593201464781,-0.4549612929336052
43.7,76.69021217129774,229.5271975892936,1.28352816207847,-0.4611210166175069
43.8,76.81841152156385,229.4807773920486,1.280457988581221,-0.4672833617824876
43.90000000000001,76.94630359828629,229.4337408309199,1.277382693253726,-0.4734482874604886
44,77.07388788989692,229.386087649906,1.27430228839716,-0.4796157526534395
44.1,77.20116388605878,229.3378175971063,1.271216786333141,-0.4857857163336167
44.2,77.32813107766803,229.2889304247248,1.26812619940367,-0.4919581374439924
44.3,77.45478895685606,229.2394258890727,1.265030539971093,-0.4981329748985934
44.40000000000001,77.58113701699155,229.1893037505708,1.261929820418043,-0.5043101875828552
44.5,77.70717475268239,229.1385637737532,1.258824053147394,-0.5104897343539783
44.6,77.83290165977785,229.0872057272694,1.25571325058221,-0.5166715740412837
44.7,77.95831723537043,229.0352293838876,1.252597425165699,-0.5228556654465679
44.8,78.08342097779803,228.982634520497,1.249476589361157,-0.5290419673444615
44.90000000000001,78.20821238664583,228.9294209181107,1.246350755651923,-0.5352304384827832
45,78.33269096274834,228.8755883618683,1.243219936541329,-0.5414210375828978
45.1,78.45685620819147,228.8211366410388,1.240084144552646,-0.547613723340076
45.2,78.58070762631435,228.7660655490228,1.236943392229038,-0.5538084544238461
45.3,78.70424472171152,228.710374883355,1.233797692133511,-0.5600051894783559
45.40000000000001,78.82746700023473,228.6540644457074,1.23064705684886,-0.5662038871227293
45.5,78.95037396899505,228.5971340418909,1.227491498977623,-0.5724045059514238
45.6,79.07296513636474,228.5395834818586,1.224331031142027,-0.5786070045345899
45.7,79.19524001197934,228.4814125797073,1.221165665983938,-0.5848113414184289
45.8,79.31719810673948,228.4226211536808,1.217995416164813,-0.5910174751255513
45.90000000000001,79.43883893281296,228.3632090261714,1.214820294365648,-0.5972253641553356
46,79.56016200363661,228.303176023723,1.211640313286926,-0.6034349669842879
46.1,79.68116683391833,228.2425219770328,1.208455485648565,-0.6096462420664035
46.2,79.80185293963895,228.1812467209536,1.205265824189873,-0.6158591478335218
46.3,79.92221983805423,228.1193500944962,1.202071341669492,-0.622073642695689
46.40000000000001,80.04226704769671,228.0568319408316,1.198872050865347,-0.6282896850415187
46.5,80.16199408837772,227.9936921072928,1.195667964574596,-0.6345072332385497
46.6,80.28140048118925,227.9299304453773,1.192459095613582,-0.6407262456336087
46.7,80.40048574850593,227.8655468107486,1.189245456817775,-0.6469466805531696
46.8,80.51924941398678,227.8005410632389,1.186027061041727,-0.6531684963037144
46.90000000000001,80.63769100257736,227.7349130668506,1.182803921159015,-0.6593916511720939
47,80.75581004051143,227.6686626897583,1.179576050062196,-0.6656161034258898
47.1,80.87360605531302,227.601789804311,1.17634346066275,-0.6718418113137756
47.2,80.99107857579821,227.5342942870334,1.173106165891029,-0.6780687330658772
47.3,81.1082271320771,227.4661760186285,1.169864178696209,-0.6842968268941361
47.40000000000001,81.22505125555561,227.3974348839788,1.166617512046234,-0.6905260509926696
47.5,81.34155047893738,227.3280707721484,1.163366178927767,-0.696756363538134
47.6,81.4577243362257,227.2580835763843,1.160110192346135,-0.7029877226900867
47.7,81.57357236272527,227.1874731941187,1.15684956532528,-0.7092200865913484
47.8,81.68909409504418,227.1162395269702,1.153584310907706,-0.7154534133683644
47.90000000000001,81.80428907109561,227.0443824807455,1.150314442154427,-0.721687661131569
48,81.91915683009982,226.9719019654411,1.147039972144913,-0.7279227879757475
48.1,82.03369691258597,226.898797895245,1.14376091397704,-0.7341587519803996
48.2,82.14790886039381,226.8250701885376,1.140477280767036,-0.7403955112101013
48.3,82.26179221667576,226.7507187678938,1.137189085649429,-0.7466330237148696
48.40000000000001,82.37534652589852,226.6757435600842,1.133896341776996,-0.7528712475305247
48.5,82.488571333845,226.6001444960766,1.130599062320709,-0.7591101406790536
48.6,82.60146618761614,226.523921511037,1.127297260469678,-0.7653496611689763
48.7,82.71403063563267,226.4470745443315,1.12399094943111,-0.7715897669957049
48.8,82.82626422763695,226.3696035395272,1.120680142430242,-0.7778304161419107
48.90000000000001,82.93816651469473,226.2915084443935,1.117364852710299,-0.7840715665778887
49,83.04973704919705,226.2127892109033,1.114045093532435,-0.7903131762619184
49.1,83.1609753848619,226.1334457952346,1.110720878175681,-0.7965552031406328
49.2,83.27188107673609,226.0534781577709,1.107392219936897,-0.8027976051493775
49.3,83.38245368119702,225.9728862631029,1.104059132130709,-0.8090403402125799
49.40000000000001,83.49269275595439,225.8916700800294,1.100721628089464,-0.8152833662441106
49.5,83.60259786005206,225.8098295815583,1.097379721163175,-0.8215266411476486
49.6,83.71216855386976,225.7273647449077,1.094033424719464,-0.8277701228170489
49.7,83.82140439912486,225.6442755515066,1.090682752143513,-0.8340137691367029
49.8,83.93030495887413,225.5605619869961,1.087327716838008,-0.8402575379819059
49.90000000000001,84.03886979751546,225.4762240412304,1.083968332223086,-0.8465013872192231
50,84.14709848078965,225.3912617082773,1.08060461173628,-0.8527452747068517
50.1,84.25499057578212,225.305674986419,1.077236568832467,-0.8589891582949893
50.2,84.36254565092463,225.2194638781535,1.073864216983816,-0.8652329958261977
50.3,84.46976327599702,225.1326283901945,1.070487569679728,-0.8714767451357677
50.40000000000001,84.57664302212893,225.0451685334728,1.067106640426788,-0.877720364052085
50.5,84.68318446180152,224.9570843231365,1.063721442748711,-0.8839638103969967
50.6,84.78938716884917,224.8683757785519,1.06033199018628,-0.8902070419861763
50.7,84.8952507184612,224.7790429233041,1.056938296297303,-0.8964500166294885
50.8,85.00077468718355,224.6890857851973,1.053540374656549,-0.9026926921313556
50.90000000000001,85.10595865292051,224.5985043962559,1.050138238855701,-0.9089350262911243
51,85.21080219493629,224.5072987927241,1.046731902503299,-0.9151769769034284
51.1,85.31530489385692,224.4154690150671,1.043321379224682,-0.9214185017585592
51.2,85.41946633167174,224.3230151079713,1.039906682661939,-0.927659558642828
51.3,85.52328609173512,224.2299371203448,1.036487826473852,-0.9339001053389324
51.40000000000001,85.62676375876816,224.1362351053172,1.033064824335841,-0.9401400996263232
51.5,85.72989891886034,224.0419091202406,1.029637689939911,-0.9463794992815709
51.6,85.83269115947114,223.9469592266895,1.026206436994593,-0.9526182620787309
51.7,85.93514006943175,223.851385490461,1.022771079224896,-0.9588563457897089
51.8,86.03724523894668,223.7551879815754,1.019331630372245,-0.965093708184629
51.90000000000001,86.13900625959535,223.6583667742757,1.015888104194432,-0.971330307032198
52,86.24042272433384,223.5609219470283,1.012440514465557,-0.9775661001000724
52.1,86.34149422749641,223.4628535825228,1.008988874975974,-0.9838010451552247
52.2,86.44222036479722,223.3641617676721,1.005533199532236,-0.9900350999643102
52.3,86.5426007333318,223.2648465936126,1.002073501957041,-0.996268222294031
52.40000000000001,86.64263493157884,223.1649081557037,0.9986097960891737,-1.002500369911504
52.5,86.7423225594017,223.0643465535284,0.9951420957834539,-1.008731500584628
52.6,86.84166321804996,222.9631618908926,0.9916704149106779,-1.014961572082448
52.7,86.94065651016113,222.8613542758254,0.9881947673575644,-1.021190542175521
52.8,87.03930203976219,222.7589238205786,0.984715167026699,-1.027418368636286
52.90000000000001,87.13759941227114,222.6558706416268,0.9812316278364785,-1.033645009239425
53,87.23554823449862,222.5521948596667,0.977744163721055,-1.039870421762233
53.1,87.33314811464949,222.4478965996176,0.9742527886302803,-1.046094563984983
53.2,87.43039866232434,222.3429759906203,0.97075751652965,-1.052317393691292
53.3,87.52729948852111,222.237433166037,0.967258361400248,-1.058538868668488
53.40000000000001,87.62385020563663,222.1312682634512,0.96375533723869,-1.064758946707975
53.5,87.72005042746817,222.0244814246668,0.9602484580570682,-1.070977585605597
53.6,87.81589976921495,221.9170727957081,0.9567377378828943,-1.077194743162012
53.7,87.91139784747973,221.8090425268189,0.9532231907590446,-1.083410377183048
53.8,88.00654428027035,221.7003907724623,0.9497048307437029,-1.089624445480075
53.90000000000001,88.1013386870012,221.5911176913198,0.9461826719103045,-1.09583690587037
54,88.19578068849475,221.481223446291,0.9426567283474799,-1.102047716177482
54.1,88.28986990698316,221.3707082044928,0.9391270141589989,-1.108256834231599
54.2,88.38360596610964,221.2595721372586,0.9355935434637134,-1.114464217869911
54.3,88.47698849093011,221.1478154201378,0.9320563303955015,-1.120669824936982
54.40000000000001,88.57001710791459,221.0354382328952,0.9285153891032107,-1.126873613285106
54.5,88.66269144494872,220.9224407595094,0.9249707337506016,-1.133075540774683
54.6,88.75501113133531,220.8088231881732,0.9214223785162907,-1.139275565274576
54.7,88.84697579779569,220.6945857112916,0.9178703375936944,-1.145473644662484
54.8,88.93858507647136,220.5797285254816,0.9143146251909715,-1.151669736825301
54.90000000000001,89.02983860092529,220.4642518315708,0.9107552555309669,-1.157863799659484
55,89.12073600614355,220.3481558345971,0.9071922428511546,-1.164055791071419
55.1,89.21127692853659,220.2314407438068,0.9036256014035805,-1.170245668977786
55.2,89.30146100594087,220.1141067726541,0.9000553454548055,-1.176433391305922
55.3,89.39128787762019,219.9961541388003,0.8964814892858488,-1.182618915994189
55.40000000000001,89.48075718426719,219.8775830641117,0.8929040471921302,-1.188802200992336
55.5,89.56986856800476,219.7583937746594,0.8893230334834136,-1.194983204261867
55.6,89.6586216723875,219.6385865007178,0.8857384624837485,-1.201161883776403
55.7,89.74701614240308,219.5181614767631,0.8821503485314147,-1.207338197522049
55.8,89.83505162447376,219.3971189414724,0.8785587059788629,-1.213512103497754
55.90000000000001,89.92272776645771,219.2754591377222,0.8749635491926586,-1.219683559715683
56,90.0100442176505,219.153182312587,0.8713648925534242,-1.225852524201573
56.1,90.09700062878643,219.0302887173383,0.8677627504557813,-1.232018954995105
56.2,90.18359665203999,218.9067786074426,0.8641571373082936,-1.238182810150261
56.3,90.26983194102716,218.7826522425606,0.860548067533409,-1.244344047735693
56.40000000000001,90.35570615080695,218.657909886545,0.8569355555674015,-1.250502625835083
56.5,90.4412189378826,218.5325518074398,0.8533196158603145,-1.256658502547512
56.6,90.52636996020308,218.406578277478,0.8497002628759016,-1.262811635987817
56.7,90.61115887716443,218.2799895730803,0.8460775110915703,-1.268961984286961
56.8,90.69558534961108,218.1527859748537,0.8424513749983227,-1.27510950559239
56.90000000000001,90.77964903983727,218.0249677675895,0.8388218691006983,-1.281254158068402
57,90.86334961158833,217.8965352402616,0.8351890079167159,-1.287395899896505
57.1,90.9466867300621,217.7674886860252,0.8315528059778156,-1.293534689275784
57.2,91.02966006191021,217.6378284022142,0.8279132778288,-1.299670484423259
57.3,91.11226927523944,217.5075546903404,0.824270438027777,-1.305803243574256
57.40000000000001,91.19451403961307,217.3766678560908,0.8206243011461009,-1.311932924982758
57.5,91.27639402605212,217.2451682093262,0.8169748817683143,-1.318059486921776
57.6,91.35790890703677,217.113056064079,0.8133221944920901,-1.324182887683709
57.7,91.4390583565076,216.9803317385516,0.8096662539281723,-1.330303085580703
57.8,91.51984204986692,216.846995555114,0.8060070747003183,-1.336420038945018
57.90000000000001,91.60025966398007,216.713047840302,0.8023446714452401,-1.342533706129382
58,91.68031087717668,216.578488924815,0.7986790588125464,-1.348644045507362
58.1,91.75999536925205,216.4433191435143,0.7950102514646816,-1.354751015473718
58.2,91.83931282146828,216.3075388354202,0.7913382640768714,-1.360854574444766
58.3,91.91826291655568,216.1711483437106,0.7876631113370598,-1.366954680858739
58.40000000000001,91.99684533871397,216.0341480157184,0.7839848079458532,-1.373051293176149
58.5,92.07505977361356,215.8965382029292,0.7803033686164605,-1.379144369880145
58.6,92.15290590839685,215.7583192609792,0.776618808074633,-1.385233869476876
58.7,92.23038343167934,215.6194915496531,0.7729311410586091,-1.391319750495849
58.8,92.3074920335511,215.4800554328809,0.7692403823190515,-1.397401971490291
58.90000000000001,92.38423140557779,215.3400112787366,0.7655465466189902,-1.403480491037504
59,92.46060124080203,215.199359459435,0.7618496487337637,-1.409555267739231
59.1,92.53660123374461,215.0581003513294,0.7581497034509571,-1.415626260222012
59.2,92.61223108040562,214.9162343349095,0.7544467255703481,-1.421693427137541
59.3,92.6874904782658,214.7737617947983,0.7507407299038427,-1.42775672716303
59.40000000000001,92.76237912628766,214.6306831197498,0.7470317312754187,-1.433816119001561
59.5,92.83689672491666,214.4869987026466,0.743319744521066,-1.439871561382451
59.6,92.91104297608258,214.3427089404968,0.7396047844887259,-1.445923013061607
59.7,92.98481758320048,214.1978142344316,0.7358868660382336,-1.451970432821882
59.8,93.058220251172,214.0523149897027,0.7321660040412588,-1.458013779473437
59.90000000000001,93.13125068638661,213.9062116156793,0.7284422133812439,-1.464053011854096
60,93.20390859672263,213.7595045258454,0.7247155089533472,-1.470088088829701
60.1,93.27619369154854,213.6121941377971,0.7209859056643806,-1.476118969294477
60.2,93.34810568172408,213.4642808732395,0.7172534184327523,-1.482145612171378
60.3,93.41964427960134,213.3157651579841,0.713518062188407,-1.488167976412451
60.40000000000001,93.49080919902603,213.1666474219455,0.7097798518727642,-1.49418602099919
60.5,93.56160015533858,213.016928099139,0.7060388024386608,-1.500199704942892
60.6,93.63201686537528,212.866607627677,0.7022949288502885,-1.506208987285013
60.7,93.70205904746936,212.7156864497663,0.6985482460831368,-1.512213827097522
60.8,93.77172642145216,212.5641650117051,0.6947987691239327,-1.518214183483258
60.90000000000001,93.84101870865432,212.4120437638795,0.6910465129705784,-1.524210015576286
61,93.90993563190676,212.2593231607608,0.6872914926320941,-1.530201282542246
61.1,93.97847691554189,212.106003660902,0.6835337231285552,-1.536187943578717
61.2,94.04664228539465,211.9520857269351,0.6797732194910352,-1.54216995791556
61.3,94.1144314688037,211.7975698255669,0.6760099967615432,-1.54814728481528
61.40000000000001,94.18184419461232,211.6424564275767,0.6722440699929658,-1.554119883573377
61.5,94.24888019316975,211.4867460078127,0.6684754542490052,-1.560087713518698
61.6,94.31553919633208,211.3304390451881,0.6647041646041185,-1.566050734013792
61.7,94.38182093746337,211.1735360226784,0.6609302161434597,-1.572008904455261
61.8,94.44772515143677,211.0160374273178,0.6571536239628172,-1.577962184274113
61.90000000000001,94.51325157463548,210.8579437501955,0.6533744031685553,-1.583910532936114
62,94.5783999449539,210.6992554864525,0.6495925688775525,-1.589853909942141
62.1,94.64317000179865,210.5399731352778,0.6458081362171398,-1.595792274828532
62.2,94.7075614860896,210.3800971999051,0.6420211203250433,-1.601725587167437
62.3,94.77157414026087,210.219628187609,0.6382315363493212,-1.607653806567168
62.40000000000001,94.83520770826193,210.0585666097015,0.634439399448305,-1.613576892672554
62.5,94.89846193555861,209.8969129815283,0.6306447247905373,-1.619494805165286
62.6,94.96133656913409,209.734667822465,0.626847527554711,-1.625407503764268
62.7,95.02383135748991,209.5718316559134,0.6230478229296103,-1.63131494822597
62.8,95.085946050647,209.4084050092979,0.6192456261140484,-1.637217098344773
62.90000000000001,95.14768040014665,209.2443884140615,0.6154409523168074,-1.643113913953319
63,95.20903415905157,209.0797824056619,0.6116338167565787,-1.649005354922862
63.1,95.2700070819468,208.9145875235679,0.6078242346618978,-1.654891381163615
63.2,95.33059892494074,208.7488043112552,0.6040122212710889,-1.660771952625092
63.3,95.39080944566608,208.5824333162026,0.6001977918322002,-1.666647029296467
63.40000000000001,95.45063840328083,208.415475089888,0.5963809616029441,-1.672516571206912
63.5,95.51008555846923,208.2479301877843,0.5925617458506375,-1.678380538425946
63.6,95.56915067344273,208.0797991693555,0.5887401598521371,-1.684238891063784
63.7,95.62783351194098,207.9110825980526,0.5849162188937823,-1.69009158927168
63.8,95.68613383923268,207.7417810413092,0.5810899382713319,-1.695938593242276
63.90000000000001,95.7440514221166,207.5718950705376,0.5772613332899028,-1.701779863209944
64,95.80158602892249,207.4014252611248,0.573430419263911,-1.707615359451132
64.10000000000001,95.85873742951202,207.2303721924277,0.5695972115170058,-1.713445042284711
64.2,95.91550539527962,207.0587364477694,0.565761725382015,-1.719268872072314
64.3,95.97188969915354,206.8865186144347,0.5619239762008765,-1.72508680921869
64.40000000000001,96.02789011559662,206.7137192836655,0.5580839793245824,-1.730898814172035
64.5,96.08350642060726,206.540339050657,0.5542417501131152,-1.736704847424343
64.60000000000001,96.13873839172035,206.3663785145528,0.5503973039353861,-1.742504869511748
64.7,96.19358580800805,206.1918382784408,0.546550656169176,-1.748298841014862
64.8,96.24804845008079,206.0167189493485,0.5427018222010694,-1.754086722559125
64.90000000000001,96.30212610008803,205.8410211382387,0.5388508174263977,-1.759868474815138
65,96.3558185417193,205.6647454600047,0.5349976572491747,-1.765644058499009
65.10000000000001,96.40912556020487,205.4878925334659,0.5311423570820357,-1.771413434372696
65.2,96.46204694231673,205.3104629813635,0.5272849323461773,-1.777176563244339
65.3,96.51458247636945,205.1324574303554,0.5234253984712922,-1.782933405968608
65.40000000000001,96.56673195222095,204.9538765110114,0.5195637708955111,-1.788683923447042
65.5,96.6184951612734,204.7747208578093,0.5157000650653393,-1.794428076628381
65.60000000000001,96.66987189647404,204.5949911091291,0.5118342964355942,-1.800165826508915
65.7,96.72086195231596,204.4146879072494,0.5079664804693468,-1.805897134132813
65.8,96.77146512483905,204.2338118983415,0.5040966326378543,-1.811621960592467
65.90000000000001,96.82168121163066,204.0523637324651,0.5002247684205035,-1.817340267028828
66,96.87151001182653,203.8703440635635,0.4963509033047458,-1.823052014631742
66.10000000000001,96.92095132611152,203.6877535494586,0.4924750527860364,-1.828757164640286
66.2,96.97000495672042,203.5045928518457,0.4885972323677732,-1.834455678343107
66.3,97.01867070743879,203.3208626362889,0.4847174575612317,-1.840147517078756
66.40000000000001,97.06694838360367,203.136563572216,0.4808357438855062,-1.845832642236023
66.5,97.11483779210445,202.9516963329131,0.4769521068674463,-1.851511015254274
66.60000000000001,97.16233874138356,202.7662615955201,0.4730665620415944,-1.857182597623781
66.7,97.20945104143725,202.5802600410253,0.4691791249501259,-1.862847350886061
66.8,97.25617450381638,202.3936923542601,0.4652898111427828,-1.868505236634207
66.90000000000001,97.30250894162718,202.2065592238941,0.4613986361768156,-1.874156216513221
67,97.34845416953193,202.0188613424299,0.4575056156169188,-1.879800252220348
67.10000000000001,97.39401000374983,201.8305994061975,0.4536107650351691,-1.885437305505407
67.2,97.43917626205754,201.6417741153495,0.449714100010965,-1.891067338171121
67.3,97.48395276379014,201.4523861738555,0.4458156361309604,-1.896690312073453
67.40000000000001,97.52833932984167,201.2624362894967,0.4419153889890048,-1.902306189121935
67.5,97.5723357826659,201.0719251738608,0.438013374186083,-1.907914931279991
67.60000000000001,97.61594194627712,200.8808535423365,0.4341096073302484,-1.913516500565281
67.7,97.65915764625069,200.6892221141078,0.4302041040365633,-1.919110859050017
67.8,97.70198270972389,200.497031612149,0.4262968799270361,-1.924697968861298
67.90000000000001,97.74441696539652,200.3042827632187,0.4223879506305568,-1.930277792181442
68,97.78646024353162,200.1109762978546,0.4184773317828385,-1.935850291248305
68.10000000000001,97.82811237595612,199.9171129503677,0.4145650390263511,-1.941415428355614
68.2,97.86937319606156,199.7226934588372,0.4106510880102603,-1.946973165853292
68.3,97.91024253880471,199.527718565104,0.4067354943903654,-1.952523466147789
68.40000000000001,97.95072024070825,199.3321890147656,0.4028182738290345,-1.958066291702402
68.5,97.99080613986142,199.1361055571708,0.3988994419951457,-1.9636016050376
68.60000000000001,98.03050007592068,198.9394689454129,0.3949790145640208,-1.969129368731357
68.7,98.06980189011037,198.7422799363248,0.3910570072173644,-1.974649545419465
68.8,98.10871142522323,198.5445392904728,0.3871334356432009,-1.98016209779587
68.90000000000001,98.14722852562123,198.346247772151,0.38320831553581,-1.985666988612984
69,98.18535303723598,198.1474061493752,0.3792816625956685,-1.991164180682016
69.10000000000001,98.22308480756948,197.9480151938772,0.3753534925293823,-1.996653636873291
69.2,98.26042368569473,197.7480756810989,0.3714238210496264,-2.002135320116571
69.3,98.29736952225623,197.547588390186,0.367492663875082,-2.007609193401378
69.40000000000001,98.33392216947074,197.3465541039823,0.3635600367303712,-2.013075219777318
69.5,98.37008148112766,197.1449736090239,0.3596259553459987,-2.018533362354392
69.60000000000001,98.40584731258981,196.9428476955324,0.3556904354582843,-2.023983584303322
69.7,98.44121952079394,196.7401771574098,0.3517534928093023,-2.029425848855875
69.8,98.47619796425121,196.5369627922315,0.3478151431468186,-2.034860119305169
69.90000000000001,98.51078250304795,196.3332054012405,0.3438754022242251,-2.040286359006004
70,98.54497299884602,196.1289057893414,0.3399342858004816,-2.045704531375169
70.10000000000001,98.57876931488349,195.9240647650939,0.3359918096400482,-2.051114599891766
70.2,98.61217131597513,195.7186831407068,0.3320479895128242,-2.056516528097524
70.3,98.645178868513,195.5127617320314,0.3281028411940854,-2.061910279597115
70.40000000000001,98.67779184046691,195.3063013585553,0.3241563804644184,-2.06729581805847
70.5,98.71001010138504,195.0993028433967,0.3202086231096625,-2.072673107213092
70.60000000000001,98.74183352239437,194.8917670132965,0.3162595849208403,-2.078042110856372
70.7,98.77326197620127,194.6836946986138,0.3123092816941006,-2.083402792847902
70.8,98.80429533709196,194.4750867333179,0.3083577292306509,-2.088755117111785
70.90000000000001,98.83493348093305,194.2659439549828,0.3044049433366946,-2.094099047636959
71,98.86517628517197,194.0562672047801,0.3004509398233717,-2.099434548477491
71.10000000000001,98.89502362883759,193.8460573274729,0.2964957345066892,-2.104761583752903
71.2,98.92447539254057,193.6353151714089,0.2925393432074644,-2.110080117648477
71.3,98.95353145847385,193.4240415885142,0.2885817817512574,-2.115390114415565
71.40000000000001,98.98219171041325,193.2122374342863,0.2846230659683072,-2.120691538371901
71.5,99.01045603371777,192.9999035677875,0.2806632116934735,-2.125984353901906
71.60000000000001,99.0383243153302,192.7870408516384,0.2767022347661663,-2.131268525457004
71.7,99.06579644377739,192.5736501520113,0.2727401510302895,-2.136544017555917
71.8,99.0928723091709,192.359732338623,0.2687769763341726,-2.141810794784988
71.90000000000001,99.1195518032073,192.1452882847283,0.264812726530508,-2.147068821798476
72,99.14583481916864,191.9303188671132,0.2608474174762911,-2.152318063318865
72.10000000000001,99.17172125192292,191.714824966088,0.2568810650327513,-2.157558484137173
72.2,99.1972109979244,191.4988074654805,0.2529136850652942,-2.16279004911325
72.3,99.22230395521416,191.2822672526292,0.2489452934434346,-2.168012723176092
72.40000000000001,99.24700002342038,191.0652052183759,0.2449759060407322,-2.173226471324133
72.5,99.27129910375885,190.8476222570593,0.2410055387347332,-2.178431258625559
72.60000000000001,99.29520109903326,190.6295192665078,0.2370342074068997,-2.183627050218603
72.7,99.31870591363567,190.4108971480323,0.2330619279425531,-2.188813811311848
72.8,99.34181345354686,190.1917568064196,0.2290887162308059,-2.193991507184532
72.90000000000001,99.36452362633669,189.9720991499245,0.2251145881644984,-2.199160103186846
73,99.38683634116448,189.7519250902639,0.2211395596401392,-2.204319564740229
73.10000000000001,99.40875150877943,189.5312355426084,0.2171636465578354,-2.209469857337677
73.2,99.4302690415209,189.3100314255761,0.2131868648212354,-2.214610946544036
73.3,99.45138885331878,189.0883136612248,0.2092092303374608,-2.219742797996297
73.40000000000001,99.47211085969384,188.8660831750451,0.2052307590170429,-2.224865377403902
73.5,99.49243497775809,188.6433408959529,0.2012514667738635,-2.229978650549032
73.60000000000001,99.51236112621508,188.4200877562822,0.1972713695250844,-2.235082583286909
73.7,99.53188922536026,188.1963246917782,0.1932904831910911,-2.240177141546086
73.8,99.55101919708125,187.972052641589,0.1893088236954223,-2.245262291328751
73.90000000000001,99.56975096485817,187.7472725482592,0.1853264069647108,-2.250337998711009
74,99.588084453764,187.5219853577219,0.1813432489286194,-2.255404229843184
74.10000000000001,99.60601959046481,187.2961920192915,0.1773593655197731,-2.260460950950111
74.2,99.62355630322006,187.0698934856562,0.1733747726737021,-2.265508128331423
74.3,99.64069452188291,186.8430907128703,0.1693894863287712,-2.270545728361849
74.40000000000001,99.65743417790056,186.6157846603472,0.1654035224261204,-2.275573717491502
74.5,99.67377520431434,186.3879762908513,0.1614168969096013,-2.280592062246166
74.60000000000001,99.68971753576021,186.1596665704905,0.1574296257257088,-2.285600729227591
74.7,99.70526110846887,185.930856468709,0.1534417248235243,-2.29059968511378
74.8,99.72040586026603,185.7015469582792,0.1494532101546446,-2.295588896659274
74.90000000000001,99.73515173057271,185.4717390152942,0.1454640976731232,-2.300568330695445
75,99.74949866040545,185.2414336191602,0.1414744033354058,-2.305537954130777
75.10000000000001,99.76344659237654,185.0106317525887,0.1374841431002629,-2.310497733951156
75.2,99.77699547069429,184.7793344015885,0.1334933329287318,-2.315447637220154
75.3,99.79014524116317,184.5475425554584,0.1295019887840465,-2.320387631079314
75.40000000000001,99.80289585118416,184.315257206779,0.1255101266315783,-2.325317682748436
75.5,99.81524724975482,184.0824793514052,0.1215177624387718,-2.330237759525854
75.60000000000001,99.82719938746956,183.8492099884577,0.1175249121750767,-2.335147828788727
75.7,99.83875221651985,183.6154501203161,0.1135315918118905,-2.340047857993315
75.8,99.84990569069438,183.3812007526099,0.1095378173224879,-2.344937814675263
75.90000000000001,99.8606597653793,183.1464628942114,0.1055436046819617,-2.349817666449881
76,99.8710143975583,182.9112375572271,0.1015489698671584,-2.354687381012421
76.10000000000001,99.88096954581287,182.6755257569902,0.09755392885661006,-2.359546926138364
76.2,99.89052517032243,182.4393285120522,0.0935584976304773,-2.364396269683686
76.3,99.89968123286449,182.202646844175,0.08956269217047831,-2.36923537958515
76.40000000000001,99.90843769681484,181.9654817783228,0.08556652845982962,-2.374064223860572
76.5,99.9167945271476,181.7278343426539,0.08157002248318207,-2.3788827706091
76.60000000000001,99.92475169043547,181.4897055685126,0.07757319022655244,-2.383690988011493
76.7,99.93230915484982,181.2510964904212,0.07357604767726625,-2.388488844330393
76.80000000000001,99.93946689016079,181.0120081460713,0.06957861082388654,-2.393276307910599
76.90000000000001,99.94622486773746,180.7724415763162,0.06558089565615677,-2.398053347179342
77,99.95258306054791,180.5323978251622,0.06158291816493224,-2.402819930646555
77.10000000000001,99.95854144315939,180.2918779397606,0.05758469434211629,-2.407576026905148
77.2,99.96409999173838,180.050882970399,0.05358624018060063,-2.412321604631275
77.30000000000001,99.96925868405067,179.8094139704935,0.04958757167419481,-2.417056632584611
77.40000000000001,99.97401749946152,179.5674719965799,0.0455887048175693,-2.421781079608615
77.5,99.9783764189357,179.3250581083053,0.04158965560618486,-2.426494914630803
77.60000000000001,99.98233542503748,179.0821733684201,0.037590440036233,-2.431198106663015
77.7,99.98589450193089,178.8388188427692,0.03359107410457201,-2.435890624801679
77.80000000000001,99.98905363537959,178.5949956002836,0.0295915738086585,-2.440572438228088
77.90000000000001,99.99181281274707,178.3507047129719,0.02559195514649009,-2.445243516208651
78,99.99417202299664,178.1059472559118,0.02159223411653478,-2.449903828095174
78.10000000000001,99.99613125669143,177.8607243072415,0.01759242671767135,-2.45455334332511
78.2,99.99769050599451,177.6150369481513,0.0135925489491254,-2.459192031421834
78.30000000000001,99.9988497646689,177.3688862628747,0.00959261681040088,-2.463819861994899
78.40000000000001,99.99960902807757,177.12227333868,0.0055926463012228,-2.468436804740301
78.5,99.99996829318346,176.8751992658616,0.001592653421466527,-2.47304282944074
78.60000000000001,99.99992755854952,176.6276651377311,-0.002407345828901753,-2.477637905965881
78.7,99.99948682433866,176.3796720506091,-0.006407335449889038,-2.482222004272611
78.80000000000001,99.99864609231385,176.1312211038158,-0.01040729944154396,-2.486795094405304
78.90000000000001,99.99740536583799,175.8823133996628,-0.01440722180401409,-2.491357146496072
79,99.995764649874,175.6329500434441,-0.01840708653761667,-2.49590813076503
79.10000000000001,99.99372395098474,175.383132143427,-0.02240687764289808,-2.500448017520545
79.2,99.99128327733301,175.132860810844,-0.02640657912069791,-2.504976777159499
79.30000000000001,99.98844263868149,174.8821371598829,-0.03040617497221736,-2.50949438016754
79.40000000000001,99.98520204639271,174.6309623076791,-0.03440564919907656,-2.514000797119336
79.5,99.98156151342909,174.3793373743056,-0.0384049858033853,-2.518495998678833
79.60000000000001,99.97752105435271,174.1272634827647,-0.04240416878780246,-2.522979955599502
79.7,99.97308068532541,173.874741758979,-0.04640318215560013,-2.527452638724596
79.80000000000001,99.96824042410867,173.621773331782,-0.05040200991073193,-2.531914018987397
79.90000000000001,99.96300029006353,173.3683593329096,-0.05440063605789041,-2.536364067411472
80,99.95736030415051,173.1145008969906,-0.05839904460257763,-2.540802755110914
80.10000000000001,99.95132048892955,172.8601991615381,-0.06239721955116475,-2.5452300532906
80.2,99.94488086855992,172.6054552669401,-0.06639514491095598,-2.549645933246435
80.30000000000001,99.93804146880005,172.3502703564502,-0.07039280469025697,-2.554050366365596
80.40000000000001,99.93080231700756,172.094645576179,-0.07439018289843218,-2.558443324126783
80.5,99.92316344213906,171.8385820750845,-0.07838726354597542,-2.562824778100464
80.60000000000001,99.91512487475001,171.5820810049632,-0.08238403064456899,-2.567194699949119
80.7,99.90668664699467,171.3251435204405,-0.08638046820714983,-2.57155306142748
80.80000000000001,99.89784879262596,171.0677707789619,-0.09037656024797346,-2.575899834382785
80.90000000000001,99.88861134699528,170.8099639407835,-0.09437229078267571,-2.580234990755006
81,99.87897434705239,170.5517241689627,-0.09836764382834111,-2.5845585025771
81.10000000000001,99.86893783134531,170.2930526293489,-0.1023626034035623,-2.588870341975251
81.2,99.85850184002003,170.0339504905745,-0.1063571535285064,-2.593170481169101
81.30000000000001,99.84766641482055,169.7744189240449,-0.1103512782249787,-2.597458892471997
81.40000000000001,99.83643159908854,169.5144591039297,-0.1143449615164843,-2.601735548291225
81.5,99.82479743776325,169.2540722071529,-0.1183381874282967,-2.606000421128249
81.60000000000001,99.81276397738131,168.9932594133837,-0.1223309399875172,-2.610253483578949
81.7,99.80033126607653,168.732021905027,-0.1263232032231409,-2.614494708333851
81.80000000000001,99.78749935357976,168.470360867214,-0.1303149611661205,-2.61872406817837
81.90000000000001,99.77426829121863,168.2082774877924,-0.1343061978494284,-2.622941535993036
82,99.76063813191736,167.9457729573173,-0.1382968973081243,-2.627147084753731
82.10000000000001,99.74660893019659,167.6828484690412,-0.1422870435794155,-2.631340687531925
82.2,99.73218074217309,167.4195052189049,-0.146276620702722,-2.635522317494899
82.30000000000001,99.7173536255596,167.1557444055274,-0.1502656127197412,-2.639691947905981
82.40000000000001,99.70212763966455,166.8915672301969,-0.154254003674509,-2.643849552124776
82.5,99.68650284539189,166.6269748968604,-0.1582417776134682,-2.647995103607393
82.60000000000001,99.67047930524076,166.3619686121149,-0.1622289185855279,-2.652128575906674
82.7,99.65405708330529,166.096549585197,-0.1662154106421296,-2.656249942672419
82.80000000000001,99.63723624527438,165.8307190279734,-0.1702012378373108,-2.660359177651617
82.90000000000001,99.62001685843133,165.5644781549315,-0.1741863842277667,-2.664456254688666
83,99.60239899165367,165.2978281831692,-0.1781708338729184,-2.668541147725602
83.10000000000001,99.58438271541286,165.0307703323852,-0.1821545708349721,-2.67261383080232
83.2,99.56596810177395,164.7633058248695,-0.1861375791789854,-2.676674278056797
83.30000000000001,99.5471552243954,164.4954358854934,-0.1901198429729306,-2.680722463725316
83.40000000000001,99.52794415852867,164.2271617416996,-0.1941013462877565,-2.684758362142685
83.5,99.50833498101802,163.9584846234923,-0.198082073197456,-2.688781947742458
83.60000000000001,99.48832777030012,163.6894057634274,-0.2020620077791278,-2.692793195057155
83.7,99.46792260640379,163.4199263966027,-0.2060411341130374,-2.696792078718478
83.80000000000001,99.44711957094965,163.1500477606479,-0.2100194362826853,-2.700778573457531
83.90000000000001,99.42591874714984,162.8797710957144,-0.2139968983748681,-2.704752654105038
84,99.4043202198076,162.6090976444657,-0.2179735044797422,-2.708714295591554
84.10000000000001,99.38232407531702,162.3380286520672,-0.22194923869089,-2.712663472947685
84.2,99.35993040166264,162.0665653661763,-0.2259240851053785,-2.716600161304297
84.30000000000001,99.33713928841914,161.794709036932,-0.2298980278238278,-2.720524335892736
84.40000000000001,99.31395082675094,161.5224609169457,-0.2338710509504723,-2.724435972045033
84.5,99.29036510941185,161.24982226129,-0.2378431385932245,-2.728335045194119
84.60000000000001,99.26638223074471,160.9767943274893,-0.2418142748637402,-2.732221530874038
84.7,99.242002286681,160.7033783755097,-0.2457844438774785,-2.736095404720149
84.80000000000001,99.21722537474047,160.4295756677486,-0.2497536297537689,-2.739956642469342
84.90000000000001,99.19205159403072,160.1553874690246,-0.2537218166158734,-2.743805219960242
85,99.16648104524685,159.8808150465673,-0.2576889885910493,-2.747641113133419
85.10000000000001,99.14051383067104,159.6058596700071,-0.2616551298106152,-2.751464298031589
85.2,99.11415005417209,159.3305226113654,-0.2656202244100104,-2.755274750799825
85.30000000000001,99.08738982120506,159.0548051450434,-0.2695842565288621,-2.759072447685754
85.40000000000001,99.06023323881087,158.7787085478128,-0.2735472103110471,-2.762857365039768
85.5,99.0326804156158,158.5022340988048,-0.2775090699047551,-2.76662947931522
85.60000000000001,99.00473146183111,158.2253830795005,-0.2814698194625544,-2.770388767068631
85.7,98.97638648925259,157.9481567737199,-0.2854294431414507,-2.774135204959886
85.80000000000001,98.94764561126009,157.670556467612,-0.2893879251029551,-2.777868769752432
85.90000000000001,98.91850894281706,157.392583449644,-0.2933452495131449,-2.781589438313484
86,98.88897660047014,157.1142390105914,-0.2973014005427273,-2.785297187614217
86.10000000000001,98.85904870234869,156.8355244435274,-0.3012563623671048,-2.788991994729965
86.2,98.82872536816423,156.5564410438124,-0.3052101191664341,-2.792673836840413
86.30000000000001,98.79800671921008,156.2769901090835,-0.3091626551256936,-2.796342691229799
86.40000000000001,98.76689287836076,155.9971729392443,-0.3131139544347449,-2.799998535287102
86.5,98.73538397007164,155.7169908364542,-0.3170640012883955,-2.803641346506236
86.60000000000001,98.70348012037829,155.4364451051178,-0.3210127798864646,-2.807271102486248
86.7,98.67118145689605,155.1555370518748,-0.3249602744338412,-2.810887780931499
86.80000000000001,98.63848810881954,154.8742679855891,-0.3289064691405543,-2.814491359651862
86.90000000000001,98.60540020692213,154.5926392173382,-0.3328513482218289,-2.818081816562912
87,98.57191788355534,154.3106520604029,-0.336794895898154,-2.821659129686105
87.10000000000001,98.53804127264847,154.0283078302564,-0.3407370963953454,-2.82522327714898
87.2,98.50377050970789,153.7456078445541,-0.3446779339446047,-2.828774237185332
87.30000000000001,98.4691057318166,153.4625534231224,-0.3486173927825887,-2.832311988135404
87.40000000000001,98.43404707763366,153.1791458879484,-0.3525554571514659,-2.835836508446073
87.5,98.3985946873937,152.8953865631695,-0.3564921112989842,-2.839347776671031
87.60000000000001,98.36274870290615,152.6112767750619,-0.3604273394785334,-2.842845771470965
87.7,98.32650926755495,152.3268178520307,-0.3643611259492044,-2.846330471613747
87.80000000000001,98.28987652629777,152.0420111245986,-0.3682934549758584,-2.849801855974606
87.90000000000001,98.25285062566556,151.7568579253958,-0.3722243108291831,-2.853259903536314
88,98.21543171376184,151.4713595891485,-0.3761536777857602,-2.85670459338936
88.10000000000001,98.17761994026222,151.1855174526684,-0.3800815401281287,-2.860135904732136
88.2,98.13941545641374,150.8993328548423,-0.3840078821448425,-2.863553816871103
88.30000000000001,98.1008184150343,150.6128071366206,-0.3879326881305407,-2.866958309220974
88.40000000000001,98.06182897051198,150.325941641007,-0.3918559423860031,-2.870349361304892
88.5,98.02244727880455,150.0387377130476,-0.395777629218218,-2.873726952754594
88.60000000000001,97.98267349743868,149.7511966998194,-0.3996977329404447,-2.877091063310595
88.7,97.94250778550948,149.4633199504204,-0.4036162378722716,-2.880441672822352
88.80000000000001,97.90195030367971,149.1751088159579,-0.4075331283396861,-2.88377876124844
88.90000000000001,97.86100121417928,148.886564649538,-0.4114483886751301,-2.887102308656722
89,97.81966068080446,148.5976888062547,-0.4153620032175676,-2.890412295224512
89.10000000000001,97.77792886891736,148.3084826431784,-0.4192739563125469,-2.893708701238757
89.2,97.73580594544514,148.0189475193456,-0.4231842323122592,-2.896991507096188
89.30000000000001,97.69329207887945,147.7290847957476,-0.4270928155756073,-2.900260693303498
89.40000000000001,97.6503874392757,147.4388958353195,-0.4309996904682621,-2.903516240477501
89.5,97.60709219825242,147.1483820029291,-0.4349048413627293,-2.906758129345302
89.60000000000001,97.56340652899047,146.8575446653662,-0.4388082526384118,-2.909986340744457
89.7,97.51933060623249,146.5663851913311,-0.4427099086816679,-2.913200855623131
89.80000000000001,97.47486460628211,146.2749049514237,-0.4466097938858805,-2.916401655040271
89.90000000000001,97.43000870700328,145.9831053181328,-0.4505078926515121,-2.919588720165755
90,97.38476308781952,145.6909876658244,-0.4544041893861742,-2.922762032280558
90.10000000000001,97.33912792971326,145.3985533707308,-0.4582986685046851,-2.92592157277691
90.2,97.29310341522506,145.1058038109396,-0.4621913144291321,-2.929067323158448
90.30000000000001,97.24668972845292,144.8127403663825,-0.4660821115889386,-2.932199265040383
90.40000000000001,97.19988705505153,144.5193644188241,-0.4699710444209193,-2.935317380149643
90.5,97.15269558223153,144.2256773518505,-0.4738580973693494,-2.938421650325037
90.60000000000001,97.10511549875874,143.9316805508586,-0.4777432548860222,-2.941512057517408
90.7,97.05714699495341,143.6373754030445,-0.4816265014303116,-2.944588583789777
90.80000000000001,97.00879026268953,143.3427632973923,-0.4855078214692383,-2.947651211317504
90.90000000000001,96.96004549539393,143.047845624663,-0.4893871994775257,-2.950699922388436
91,96.91091288804563,142.7526237773833,-0.4932646199376681,-2.953734699403055
91.10000000000001,96.86139263717499,142.4570991498339,-0.4971400673399888,-2.956755524874625
91.2,96.81148494086297,142.1612731380391,-0.5010135261827021,-2.959762381429343
91.30000000000001,96.76118999874025,141.8651471397541,-0.5048849809719796,-2.962755251806485
91.40000000000001,96.71050801198655,141.5687225544554,-0.5087544162220056,-2.965734118858551
91.5,96.65943918332975,141.2720007833279,-0.5126218164550455,-2.968698965551409
91.60000000000001,96.6079837170451,140.9749832292545,-0.5164871662015034,-2.971649774964439
91.7,96.5561418189544,140.6776712968047,-0.5203504499999843,-2.974586530290673
91.80000000000001,96.50391369642514,140.3800663922225,-0.5242116523973599,-2.977509214836943
91.90000000000001,96.4512995583698,140.082169923416,-0.528070757948824,-2.980417812024014
92,96.39829961524481,139.7839832999453,-0.5319277512179608,-2.983312305386731
92.10000000000001,96.34491407904989,139.4855079330113,-0.5357826167768023,-2.98619267857415
92.2,96.29114316332712,139.1867452354444,-0.5396353392058904,-2.989058915349677
92.30000000000001,96.23698708316007,138.8876966216926,-0.5434859030943419,-2.991910999591213
92.40000000000001,96.18244605517302,138.588363507811,-0.5473342930399049,-2.994748915291276
92.5,96.12752029752998,138.288747311449,-0.5511804936490259,-2.997572646557146
92.60000000000001,96.07221002993394,137.9888494518401,-0.5550244895369076,-3.000382177610995
92.7,96.01651547362586,137.6886713497894,-0.5588662653275704,-3.003177492790015
92.80000000000001,95.9604368513839,137.3882144276629,-0.5627058056539179,-3.005958576546556
92.90000000000001,95.90397438752251,137.0874801093754,-0.5665430951577922,-3.008725413448254
93,95.84712830789141,136.7864698203792,-0.5703781184900417,-3.011477988178159
93.10000000000001,95.78989883987489,136.4851849876523,-0.5742108603105777,-3.014216285534863
93.2,95.73228621239073,136.1836270396876,-0.5780413052884381,-3.01694029043263
93.30000000000001,95.67429065588937,135.8817974064802,-0.5818694381018485,-3.019649987901522
93.40000000000001,95.61591240235295,135.5796975195169,-0.5856952434382815,-3.022345363087518
93.5,95.5571516852944,135.2773288117636,-0.5895187059945221,-3.025026401252646
93.60000000000001,95.49800873975651,134.9746927176545,-0.5933398104767246,-3.027693087775104
93.7,95.438483802311,134.6717906730803,-0.5971585416004764,-3.03034540814938
93.80000000000001,95.37857711105754,134.368624115376,-0.6009748840908584,-3.032983347986372
93.90000000000001,95.31828890562281,134.0651944833101,-0.6047888226825046,-3.035606893013514
94,95.25761942715954,133.7615032170723,-0.6086003421196668,-3.038216029074889
94.10000000000001,95.19656891834558,133.4575517582621,-0.612409427156272,-3.04081074213135
94.2,95.13513762338285,133.1533415498771,-0.6162160625559852,-3.043391018260634
94.30000000000001,95.07332578799648,132.8488740363012,-0.6200202330922701,-3.045956843657482
94.40000000000001,95.01113365943374,132.5441506632931,-0.6238219235484485,-3.048508204633752
94.5,94.94856148646305,132.2391728779743,-0.6276211187177649,-3.05104508761853
94.60000000000001,94.88560951937299,131.9339421288176,-0.6314178034034433,-3.053567479158249
94.7,94.82227800997138,131.6284598656355,-0.6352119624187499,-3.056075365916794
94.80000000000001,94.75856721158415,131.3227275395677,-0.6390035805870543,-3.058568734675617
94.90000000000001,94.69447737905443,131.0167466030705,-0.6427926427418874,-3.061047572333842
95,94.63000876874145,130.7105185099039,-0.6465791337270071,-3.063511865908383
95.10000000000001,94.56516163851956,130.4040447151206,-0.6503630383964539,-3.065961602534041
95.2,94.4999362477772,130.0973266750538,-0.6541443416146144,-3.068396769463615
95.30000000000001,94.43433285741585,129.7903658473055,-0.657923028256281,-3.070817354068008
95.40000000000001,94.36835172984901,129.4831636907348,-0.6616990832067109,-3.073223343836331
95.5,94.30199312900105,129.175721665446,-0.6654724913616907,-3.075614726376005
95.60000000000001,94.2352573203063,128.8680412327765,-0.6692432376275924,-3.077991489412865
95.7,94.16814457070795,128.5601238552855,-0.6730113069214358,-3.08035362079126
95.80000000000001,94.10065514865684,128.2519709967416,-0.6767766841709494,-3.082701108474154
95.90000000000001,94.03278932411064,127.9435841221113,-0.6805393543146278,-3.085033940543224
96,93.96454736853249,127.6349646975469,-0.6842993023017964,-3.087352105198959
96.10000000000001,93.89592955489016,127.3261141903747,-0.6880565130926689,-3.089655590760757
96.2,93.8269361576548,127.0170340690833,-0.6918109716584061,-3.091944385667021
96.30000000000001,93.75756745279992,126.7077258033114,-0.6955626629811794,-3.094218478475253
96.40000000000001,93.68782371780023,126.3981908638358,-0.6993115720542274,-3.096477857862148
96.5,93.61770523163061,126.08843072256,-0.7030576838819197,-3.098722512623688
96.60000000000001,93.54721227476486,125.7784468525015,-0.7068009834798147,-3.100952431675233
96.7,93.47634512917476,125.4682407277809,-0.7105414558747176,-3.103167604051611
96.80000000000001,93.40510407832876,125.1578138236087,-0.7142790861047446,-3.105368018907208
96.90000000000001,93.333489407191,124.8471676162745,-0.7180138592193794,-3.107553665516056
97,93.26150140222005,124.5363035831341,-0.7217457602795343,-3.109724533271923
97.10000000000001,93.18914035136784,124.2252232025982,-0.7254747743576113,-3.111880611688397
97.2,93.11640654407847,123.9139279541201,-0.7292008865375577,-3.114021890398969
97.30000000000001,93.04330027128709,123.6024193181836,-0.7329240819149302,-3.116148359157124
97.40000000000001,92.96982182541868,123.2906987762914,-0.7366443455969522,-3.118260007836418
97.5,92.89597150038693,122.9787678109526,-0.7403616627025738,-3.120356826430563
97.60000000000001,92.82174959159303,122.6666279056711,-0.7440760183625325,-3.122438805053508
97.7,92.74715639592453,122.3542805449333,-0.7477873977194093,-3.124505933939516
97.80000000000001,92.67219221175411,122.0417272141961,-0.7514957859276924,-3.126558203443248
97.90000000000001,92.59685733893841,121.728969399875,-0.7552011681538338,-3.128595604039837
98,92.52115207881683,121.416008589332,-0.758903529576309,-3.130618126324967
98.10000000000001,92.44507673421026,121.1028462708633,-0.7626028553856786,-3.132625761014946
98.2,92.36863160942004,120.7894839336877,-0.7662991307846431,-3.134618498946784
98.30000000000001,92.29181701022654,120.4759230679341,-0.7699923409881062,-3.136596331078263
98.40000000000001,92.21463324388804,120.1621651646296,-0.773682471223232,-3.138559248488014
98.5,92.13708061913954,119.8482117156874,-0.777369506729504,-3.140507242375582
98.60000000000001,92.05915944619139,119.5340642138947,-0.7810534327587865,-3.142440304061505
98.7,91.98087003672822,119.2197241529005,-0.7847342345753789,-3.144358424987373
98.80000000000001,91.90221270390752,118.9051930272039,-0.7884118974560793,-3.146261596715906
98.90000000000001,91.82318776235856,118.5904723321413,-0.7920864066902411,-3.148149810931014
99,91.74379552818098,118.2755635638748,-0.795757747579832,-3.150023059437867
99.10000000000001,91.66403631894362,117.9604682193799,-0.7994259054394942,-3.151881334162958
99.2,91.58391045368319,117.6451877964334,-0.8030908655966001,-3.153724627154169
99.30000000000001,91.50341825290305,117.3297237936014,-0.8067526133913147,-3.15555293058083
99.40000000000001,91.42256003857192,117.0140777102265,-0.8104111341766511,-3.157366236733784
99.5,91.34133613412251,116.6982510464168,-0.814066413318531,-3.159164538025448
99.60000000000001,91.25974686445036,116.3822453030325,-0.8177184361958439,-3.160947826989869
99.7,91.17779255591245,116.0660619816747,-0.8213671882005016,-3.162716096282786
99.80000000000001,91.09547353632587,115.7497025846725,-0.8250126547375023,-3.164469338681687
99.90000000000001,91.01279013496662,115.4331686150716,-0.8286548212249838,-3.166207547085861
