ARM GAS  /tmp/ccOwFziu.s 			page 1


   1              		.cpu cortex-m7
   2              		.eabi_attribute 28, 1
   3              		.eabi_attribute 20, 1
   4              		.eabi_attribute 21, 1
   5              		.eabi_attribute 23, 3
   6              		.eabi_attribute 24, 1
   7              		.eabi_attribute 25, 1
   8              		.eabi_attribute 26, 1
   9              		.eabi_attribute 30, 1
  10              		.eabi_attribute 34, 1
  11              		.eabi_attribute 18, 4
  12              		.file	"croutine.c"
  13              		.text
  14              	.Ltext0:
  15              		.cfi_sections	.debug_frame
  16              	.Letext0:
  17              		.file 1 "/home/kevin/ProgramInstalls/gcc-arm-none-eabi-8-2019-q3-update/arm-none-eabi/include/mach
  18              		.file 2 "/home/kevin/ProgramInstalls/gcc-arm-none-eabi-8-2019-q3-update/arm-none-eabi/include/sys/
  19              		.file 3 "Inc/FreeRTOSConfig.h"
ARM GAS  /tmp/ccOwFziu.s 			page 2


DEFINED SYMBOLS
                            *ABS*:0000000000000000 croutine.c

NO UNDEFINED SYMBOLS
