:0C800000F8B500BFF8BC08BC9E467047F5
:10800C0008B50021044604F0C9F8044B1868C36B8A
:10801C0003B19847204604F081F900BF74C30000F7
:10802C00F1EE103A43F08073E1EE103A704700BF66
:10803C00024B13B1024804F009B97047000000006C
:10804C0065C2000010B5054C237833B9044B13B14D
:10805C000448AFF300800123237010BDCCC701008E
:10806C000000000080C3000008B5034B1BB103499E
:10807C000348AFF3008008BD00000000D0C701002A
:10808C0080C30000154B002B08BF134B9D46A3F576
:10809C00803A00218B460F461348144A121A04F0FA
:1080AC002DF80F4B002B00D098470E4B002B00D017
:1080BC0098470020002104000D000D48002802D034
:1080CC000C4804F0C3F803F05BFF2000290000F01B
:1080DC0013F8FFF795FF00BF000008000000000038
:1080EC000000000000000000CCC701009C11020041
:1080FC0059C2000065C2000000B58BB001F06CF9EC
:10810C0000F022F800F088F801F078F901AB242295
:10811C000021184603F0F2FF084B019380230693CD
:10812C001823079301AB1A460021054801F0C6F944
:10813C000246044B1A6001F08FF9FEE738C30000C9
:10814C009D820000F010020000B595B007AB342200
:10815C000021184603F0D2FF02AB00221A605A60CD
:10816C009A60DA601A612A4B1B6C294A43F08053DF
:10817C001364274B1B6C03F080530193019B254B1D
:10818C001B68244A43F440431360224B1B6803F4DE
:10819C0040430093009B012307934FF480330893D3
:1081AC0002230D934FF480030E9319230F934FF476
:1081BC00D8731093022311930223129307AB184622
:1081CC0000F0AAFA0346002B01D000F068F801F089
:1081DC00B3F80346002B01D000F061F80F23029393
:1081EC0002230393002304934FF4A05305934FF4FD
:1081FC008053069302AB0721184600F001FD03469D
:10820C00002B01D000F04BF800BF15B05DF804FB5B
:10821C00003802400070004000B589B003AB00226A
:10822C001A605A609A60DA601A61174B1B6B164A17
:10823C0043F080031363144B1B6B03F08003029316
:10824C00029B114B1B6B104A43F4007313630E4BD0
:10825C001B6B03F400730193019B012220210B483B
:10826C0001F050F82023039301230493002305937A
:10827C000023069303AB1946044800F09DFE00BF93
:10828C0009B05DF804FB00BF003802400024024036
:10829C0000B583B00190012001F0BAF9FBE700BFF3
:1082AC007047000000B583B0104B1B6C0F4A43F0B5
:1082BC00805313640D4B1B6C03F080530193019B93
:1082CC000A4B5B6C094A43F480435364074B5B6C69
:1082DC0003F480430093009B00220F216FF00100F8
:1082EC0000F000F900BF03B05DF804FB0038024059
:1082FC0000B58DB0019000230B9300230A9300224C
:10830C0001992D2000F0EEF82D2000F007F91F4BFD
:10831C001B6C1E4A43F4807313641C4B1B6C03F4DC
:10832C0080730393039B04AA05AB1146184600F017
:10833C0017FE00F001FE03465B000B930B9B144AE7
:10834C00A2FB03239B0C013B0A93124B124A1A60AB
:10835C00104B40F2E732DA600E4A0A9B53600D4B29
:10836C0000221A610B4B00229A600A4800F0E4F8D4
:10837C000346002B04D1074800F00EF9034600E039
:10838C00012318460DB05DF804FB00BF0038024015
:10839C0083DE1B43F41002000020004084B00190E7
:1083AC00019B03F0070303930A4BDB680293029AC9
:1083BC004FF6FF0313400293039B1A02029B1A43CE
:1083CC00054B13430293034A029BD36000BF04B0D6
:1083DC00704700BF00ED00E00000FA05034BDB68BE
:1083EC001B0A03F007031846704700BF00ED00E0BE
:1083FC0082B003468DF807309DF90730002B0CDB5B
:10840C009DF8073003F01F0205499DF907305B0901
:10841C00012000FA02F241F8232000BF02B070479D
:10842C0000E100E082B0034600918DF807309DF921
:10843C000730002B0ADB009BDAB20C499DF90730A0
:10844C001201D2B20B4483F800230BE0009BDAB28A
:10845C0007499DF8073003F00F03043B1201D2B219
:10846C000B441A7600BF02B0704700BF00E100E079
:10847C0000ED00E088B0039002910192039B03F0A1
:10848C0007030793079BC3F10703042B28BF04239F
:10849C000693079B0433062B02D9079B033B00E092
:1084AC00002305934FF0FF32069B02FA03F3DA43E5
:1084BC00029B1A40059B9A404FF0FF31059B01FA35
:1084CC0003F3D943019B0B401343184608B0704784
:1084DC0000B583B001900198FFF760FF00BF03B0B7
:1084EC005DF804FB00B587B00346029101928DF84C
:1084FC000F3000230593FFF771FF0590019A029945
:10850C000598FFF7B7FF02469DF90F301146184644
:10851C00FFF788FF00BF07B05DF804FB00B583B020
:10852C0003468DF807309DF907301846FFF760FFBA
:10853C0000BF03B05DF804FB00B583B00190019B54
:10854C00002B01D101231DE0019B93F83D30DBB2E0
:10855C00002B06D1019B002283F83C20019800F0EF
:10856C0015F8019B022283F83D20019B1A68019BA0
:10857C0004331946104600F035F8019B012283F8AC
:10858C003D200023184603B05DF804FB82B0019037
:10859C0000BF02B07047000084B00190019B1B68C3
:1085AC00DA68019B1B6842F00102DA60019B1B68D0
:1085BC009A680B4B13400393039B062B0BD0039B26
:1085CC00B3F5803F07D0019B1B681A68019B1B68A1
:1085DC0042F001021A600023184604B0704700BF35
:1085EC000700010084B001900091019B1B6803936C
:1085FC00019B3E4A934213D0019BB3F1804F0FD0A5
:10860C00019B3B4A93420BD0019B3A4A934207D0C1
:10861C00019B394A934203D0019B384A934208D1BB
:10862C00039B23F070030393009B5B68039A134333
:10863C000393019B2D4A93422BD0019BB3F1804FA6
:10864C0027D0019B2A4A934223D0019B294A93426B
:10865C001FD0019B284A93421BD0019B274A93426F
:10866C0017D0019B264A934213D0019B254A934273
:10867C000FD0019B244A93420BD0019B234A934277
:10868C0007D0019B224A934203D0019B214A93427B
:10869C0008D1039B23F440730393009BDB68039A7C
:1086AC0013430393039B23F08002009B5B691343EA
:1086BC000393019B039A1A60009B9A68019BDA62F0
:1086CC00009B1A68019B9A62019B084A934203D053
:1086DC00019B0A4A934203D1009B1A69019B1A63BE
:1086EC00019B01225A6100BF04B070470000014099
:1086FC000004004000080040000C00400004014051
:10870C000040014000440140004801400018004076
:10871C00001C00400020004000B587B001900023F1
:10872C008DF81730019B002B01D1012360E2019BD6
:10873C001B6803F00103002B00F08780964B9B68AD
:10874C0003F00C03042B0CD0934B9B6803F00C032D
:10875C00082B12D1904B5B6803F48003B3F5800FA8
:10876C000BD18D4B1B6803F40033002B6CD0019B99
:10877C005B68002B68D101233AE2019B5B68B3F57F
:10878C00803F06D1844B1B68834A43F480331360CB
:10879C002EE0019B5B68002B0CD17F4B1B687E4A43
:1087AC0023F4803313607C4B1B687B4A23F48023B7
:1087BC0013601DE0019B5B68B3F5A02F0CD1764BC9
:1087CC001B68754A43F480231360734B1B68724A11
:1087DC0043F4803313600BE06F4B1B686E4A23F439
:1087EC00803313606C4B1B686B4A23F4802313603B
:1087FC00019B5B68002B13D000F0FAFD049008E09D
:10880C0000F0F6FD0246049BD31A642B01D9032316
:10881C00EEE1614B1B6803F40033002BF0D014E045
:10882C0000F0E6FD049008E000F0E2FD0246049B37
:10883C00D31A642B01D90323DAE1574B1B6803F4D9
:10884C000033002BF0D100E000BF019B1B6803F04C
:10885C000203002B69D0504B9B6803F00C03002BD8
:10886C000BD04D4B9B6803F00C03082B1CD14A4BCF
:10887C005B6803F48003002B16D1474B1B6803F095
:10888C000203002B05D0019BDB68012B01D00123D7
:10889C00AEE1414B1B6823F0F802019B1B69DB0026
:1088AC003D4913430B6040E0019BDB68002B23D058
:1088BC00394B1B68384A43F00103136000F098FDF4
:1088CC00049008E000F094FD0246049BD31A022B9E
:1088DC0001D903238CE1304B1B6803F00203002BFE
:1088EC00F0D02D4B1B6823F0F802019B1B69DB00B9
:1088FC00294913430B6018E0274B1B68264A23F0C9
:10890C000103136000F074FD049008E000F070FDAA
:10891C000246049BD31A022B01D9032368E11E4B98
:10892C001B6803F00203002BF0D1019B1B6803F0C2
:10893C000803002B38D0019B5B69002B19D0164B18
:10894C005B6F154A43F00103536700F051FD04902F
:10895C0008E000F04DFD0246049BD31A022B01D90E
:10896C00032345E10C4B5B6F03F00203002BF0D0AB
:10897C001AE0094B5B6F084A23F00103536700F0C0
:10898C0037FD04900AE000F033FD0246049BD31A35
:10899C00022B03D903232BE100380240964B5B6F6B
:1089AC0003F00203002BEED1019B1B6803F00403C0
:1089BC00002B00F0A680904B1B6C03F08053002B17
:1089CC000ED18D4B1B6C8C4A43F0805313648A4B35
:1089DC001B6C03F080530393039B01238DF817301A
:1089EC00864B1B6803F48073002B18D1834B1B68D8
:1089FC00824A43F48073136000F0FAFC049008E0A0
:108A0C0000F0F6FC0246049BD31A642B01D9032315
:108A1C00EEE07A4B1B6803F48073002BF0D0019BC3
:108A2C009B68012B06D1744B1B6F734A43F00103F7
:108A3C0013672DE0019B9B68002B0CD16E4B1B6FB9
:108A4C006D4A23F0010313676B4B1B6F6A4A23F0CB
:108A5C00040313671CE0019B9B68052B0CD1664B30
:108A6C001B6F654A43F004031367634B1B6F624A29
:108A7C0043F0010313670BE05F4B1B6F5E4A23F05F
:108A8C00010313675C4B1B6F5B4A23F004031367F2
:108A9C00019B9B68002B15D000F0AAFC04900AE007
:108AAC0000F0A6FC0246049BD31A41F28832934292
:108ABC0001D903239CE0504B1B6F03F00203002BE6
:108ACC00EED014E000F094FC04900AE000F090FC6E
:108ADC000246049BD31A41F28832934201D90323F4
:108AEC0086E0454B1B6F03F00203002BEED19DF883
:108AFC001730012B05D1404B1B6C3F4A23F08053A0
:108B0C001364019B9B69002B71D03B4B9B6803F05A
:108B1C000C03082B69D0019B9B69022B4BD1364B64
:108B2C001B68354A23F08073136000F061FC0490DD
:108B3C0008E000F05DFC0246049BD31A022B01D91D
:108B4C00032355E02C4B1B6803F00073002BF0D172
:108B5C00019BDA69019B1B6A1A43019B5B6A9B01AF
:108B6C001A43019B9B6A5B08013B1B041A43019B44
:108B7C00DB6A1B061A43019B1B6B1B071E49134325
:108B8C004B601D4B1B681C4A43F08073136000F054
:108B9C002FFC049008E000F02BFC0246049BD31A37
:108BAC00022B01D9032323E0134B1B6803F0007342
:108BBC00002BF0D01BE0104B1B680F4A23F0807386
:108BCC00136000F015FC049008E000F011FC024664
:108BDC00049BD31A022B01D9032309E0064B1B6813
:108BEC0003F00073002BF0D101E0012300E000231F
:108BFC00184607B05DF804FB0038024000700040D6
:108C0C0000B585B00190009100230393019B002BCC
:108C1C0001D10123CEE0694B1B6803F00F03009ACE
:108C2C009A4210D9654B1B6823F00F026349009BD5
:108C3C0013430B60614B1B6803F00F03009A9A42BD
:108C4C0001D00123B6E0019B1B6803F00203002B4B
:108C5C0020D0019B1B6803F00403002B05D0584B5C
:108C6C009B68574A43F4E0539360019B1B6803F0E5
:108C7C000803002B05D0524B9B68514A43F46043C8
:108C8C0093604F4B9B6823F0F002019B9B684C490F
:108C9C0013438B60019B1B6803F00103002B40D036
:108CAC00019B5B68012B07D1454B1B6803F4003318
:108CBC00002B15D101237DE0019B5B68022B07D1B2
:108CCC003F4B1B6803F00073002B09D1012371E0AB
:108CDC003B4B1B6803F00203002B01D1012369E01D
:108CEC00374B9B6823F00302019B5B6834491343A9
:108CFC008B6000F07DFB03900AE000F079FB0246EC
:108D0C00039BD31A41F28832934201D9032351E0D9
:108D1C002B4B9B6803F00C02019B5B689B009A42F7
:108D2C00EBD1264B1B6803F00F03009A9A4210D22A
:108D3C00224B1B6823F00F022049009B13430B604E
:108D4C001E4B1B6803F00F03009A9A4201D00123BB
:108D5C0030E0019B1B6803F00403002B08D0184B78
:108D6C009B6823F4E052019BDB68154913438B602D
:108D7C00019B1B6803F00803002B09D0104B9B6868
:108D8C0023F46042019B1B69DB000D4913438B608C
:108D9C0000F01CF801460A4B9B681B0903F00F03FB
:108DAC00084AD35C21FA03F3074A13600020FFF74B
:108DBC009FFA0023184605B05DF804FB003C024006
:108DCC000038024044C3000098C3010070B584B061
:108DDC0000220192002203920022009200220292B1
:108DEC004F4A926802F00C02042A07D0082A08D0D5
:108DFC00002A40F08E804B4B02938DE04A4B02933D
:108E0C008AE0474A526802F03F020192444A526893
:108E1C0002F48002002A24D0414A52689209114679
:108E2C004FF0000240F2FF154FF0000601EA050377
:108E3C0002EA06043C4A02FB04F1002202FB03F2A4
:108E4C000A443949A3FB010153181946019B4FF001
:108E5C0000041A46234602F011FF03460C46039306
:108E6C0049E02F4B5B689B094FF0000440F2FF1167
:108E7C004FF0000203EA010504EA020629463246D5
:108E8C004FF000034FF00004540144EAD1644B014D
:108E9C0019462246491B62EB06024FF000034FF0C5
:108EAC000004940144EA91648B015B1A64EB0204A4
:108EBC004FF000014FF00002E20042EA5372D90079
:108ECC000B4614465B1946EB04044FF000014FF0BF
:108EDC000002A20242EA935299020B46144618462B
:108EEC002146019B4FF000041A46234602F0C6FEB1
:108EFC0003460C4603930A4B5B681B0C03F00303FD
:108F0C0001335B000093039A009BB2FBF3F30293D3
:108F1C0002E0044B029300BF029B184604B070BDE4
:108F2C00003802400024F40040787D01014B1B689E
:108F3C001846704798C3010008B5FFF7F7FF0146C4
:108F4C00054B9B689B0A03F00703044AD35C21FA88
:108F5C0003F3184608BD00BF0038024054C300009C
:108F6C0082B001900091019B0F221A60104B9B68FC
:108F7C0003F00302019B5A600D4B9B6803F0F00257
:108F8C00019B9A600A4B9B6803F4E052019BDA60E8
:108F9C00074B9B68DB0803F4E052019B1A61054BFD
:108FAC001B6803F00F02009B1A6000BF02B07047F1
:108FBC0000380240003C024088B001900091002330
:108FCC0007930023059300230493002306930023A7
:108FDC00079375E10122079B02FA03F30593009BAB
:108FEC001B68059A13400493049A059B9A4240F01F
:108FFC006481009B5B68022B03D0009B5B68122B87
:10900C0023D1079BDA08019B083253F822300693D0
:10901C00079B03F007039B000F2202FA03F3DB43C9
:10902C00069A13400693009B1A69079B03F00703EB
:10903C009B0002FA03F3069A13430693079BDA0884
:10904C00019B0832069943F82210019B1B6806937A
:10905C00079B5B00032202FA03F3DB43069A1340DF
:10906C000693009B5B6803F00302079B5B0002FA0C
:10907C0003F3069A13430693019B069A1A60009B0E
:10908C005B68012B0BD0009B5B68022B07D0009B0D
:10909C005B68112B03D0009B5B68122B30D1019BBA
:1090AC009B680693079B5B00032202FA03F3DB43E6
:1090BC00069A13400693009BDA68079B5B0002FA42
:1090CC0003F3069A13430693019B069A9A60019B3D
:1090DC005B6806930122079B02FA03F3DB43069AB3
:1090EC0013400693009B5B681B0903F00102079B6E
:1090FC0002FA03F3069A13430693019B069A5A60ED
:10910C00019BDB680693079B5B00032202FA03F3C7
:10911C00DB43069A13400693009B9A68079B5B00FF
:10912C0002FA03F3069A13430693019B069ADA603C
:10913C00009B5B6803F08053002B00F0BE80644BF7
:10914C005B6C634A43F480435364614B5B6C03F484
:10915C0080430393039B5F4A079B9B08023352F89F
:10916C0023300693079B03F003039B000F2202FAA4
:10917C0003F3DB43069A13400693019B564A934232
:10918C0037D0019B554A934231D0019B544A9342AC
:10919C002BD0019B534A934225D0019B524A9342B8
:1091AC001FD0019B514A934219D0019B504A9342C4
:1091BC0013D0019B4F4A93420DD0019B4E4A9342D0
:1091CC0007D0019B4D4A934201D1092312E00A2397
:1091DC0010E008230EE007230CE006230AE0052329
:1091EC0008E0042306E0032304E0022302E0012349
:1091FC0000E00023079A02F0030292009340069AC3
:10920C00134306933349079B9B080233069A41F894
:10921C0023203B4B1B680693049BDB43069A1340AD
:10922C000693009B5B6803F48033002B03D0069AF3
:10923C00049B13430693324A069B1360304B5B68C6
:10924C000693049BDB43069A13400693009B5B68D2
:10925C0003F40033002B03D0069A049B13430693AC
:10926C00274A069B5360264B9B680693049BDB4363
:10927C00069A13400693009B5B6803F48013002B43
:10928C0003D0069A049B134306931D4A069B9360D6
:10929C001B4BDB680693049BDB43069A1340069337
:1092AC00009B5B6803F40013002B03D0069A049B0D
:1092BC0013430693124A069BD360079B0133079313
:1092CC00079B0F2B7FF686AE00BF08B0704700BF20
:1092DC000038024000380140000002400004024007
:1092EC0000080240000C0240001002400014024032
:1092FC0000180240001C02400020024000240240E2
:10930C00003C014082B001900B46ADF80230134690
:10931C008DF801309DF80130002B04D0BDF80220EF
:10932C00019B9A6104E0BDF802301A04019B9A611A
:10933C0000BF02B07047000000B583B0002301935A
:10934C00234B1B6C224A43F080531364204B1B6C41
:10935C0003F080530093009B1E4B1B681D4A43F483
:10936C008033136000F044F8019009E000F040F8FD
:10937C000246019BD31AB3F57A7F01D9032322E06D
:10938C00144B5B6803F48033B3F5803FEED1114B83
:10939C001B68104A43F40033136000F029F8019065
:1093AC0009E000F025F80246019BD31AB3F57A7F49
:1093BC0001D9032307E0074B5B6803F40033B3F5D3
:1093CC00003FEED10023184603B05DF804FB00BF4C
:1093DC00003802400070004008B50320FFF778F811
:1093EC000020FEF785FFFEF75DFF0023184608BD41
:1093FC00014B1B68184670473411020084B0EFF320
:10940C0005830293029B002B0FD1EFF31083019382
:10941C00019B002B09D10F4B1B68022B09D1EFF3D9
:10942C0011830093009B002B03D06FF00503039373
:10943C000CE0084B1B68002B05D1064B01221A606F
:10944C000023039302E04FF0FF330393039B184672
:10945C0004B07047E8C7010000B585B0EFF3058391
:10946C000293029B002B0FD1EFF310830193019B0E
:10947C00002B09D1104B1B68022B09D1EFF3118380
:10948C000093009B002B03D06FF0050303930EE0B9
:10949C00094B1B68012B07D1074B02221A6001F004
:1094AC0037FA0023039302E04FF0FF330393039B3F
:1094BC00184605B05DF804FBE8C7010000B593B091
:1094CC0007900691059200230993EFF305830D9302
:1094DC000D9B002B40F09480EFF310830C930C9BAE
:1094EC00002B40F08D80494B1B68022B06D1EFF30B
:1094FC0011830B930B9B002B40F08280079B002B5E
:10950C007ED08023109318230F9300238DF82B30DB
:10951C000DF12B0311934FF0FF330E93059B002B92
:10952C0045D0059B1B68002B02D0059B1B68119333
:10953C00059B9B69002B02D0059B9B690F930F9B8E
:10954C00002B08D00F9B382B05D8059B5B6803F0CC
:10955C000103002B01D0002353E0059B5B69002B1A
:10956C0003D0059B5B699B081093059B9B68002BA4
:10957C000ED0059BDB685B2B0AD9059B1B69002B66
:10958C0006D0059B5B69002B02D001230E9310E0E3
:10959C00059B9B68002B0CD1059BDB68002B08D12D
:1095AC00059B1B69002B04D100230E9301E00023C3
:1095BC000E930E9B012B10D1059B1B69059A92688B
:1095CC00029201930F9B0093069B109A1199079896
:1095DC0000F0D1FF0346099312E00E9B002B0FD134
:1095EC00109B9AB209AB01930F9B0093069B1199A8
:1095FC00079801F01DF80346012B01D000230993B5
:10960C00099B184613B05DF804FB00BFE8C70100C6
:10961C0000B587B00190EFF305830493049B002BF6
:10962C000FD1EFF310830393039B002B09D10D4B48
:10963C001B68022B09D1EFF311830293029B002BC1
:10964C0003D06FF00503059307E000230593019BFE
:10965C00002B02D0019801F027F9059B184607B0A2
:10966C005DF804FBE8C7010084B0039002910192FD
:10967C00039B054A1A60029B044A1A60019B8022D4
:10968C001A6000BF04B07047ECC7010048C8010065
:10969C0084B0039002910192039B064A1A60029BCC
:1096AC00054A1A60019B4FF480721A6000BF04B027
:1096BC00704700BF48CA0100A4CA010000B58BB0B6
:1096CC0001900023079301F089F95A4B1B68002B7A
:1096DC0001D100F015F9584B1A68019B1340002B6F
:1096EC0040F09080019B002B1ED00822019B13445C
:1096FC000193019B03F00703002B15D0019B23F072
:10970C00070308330193019B03F00703002B0BD0D5
:10971C004FF0500372B683F31188BFF36F8FBFF312
:10972C004F8F62B60593FEE7019B002B6AD0434B2B
:10973C001B68019A9A4265D8414B0893404B1B68B1
:10974C00099304E0099B0893099B1B680993099BE7
:10975C005B68019A9A4203D9099B1B68002BF1D1D3
:10976C00344B1B68099A9A424CD0089B1B68082200
:10977C0013440793099B1A68089B1A60099B5A6843
:10978C00019BD21A08235B009A4220D9099A019BAB
:10979C0013440693069B03F00703002B0BD04FF0EA
:1097AC00500372B683F31188BFF36F8FBFF34F8FE3
:1097BC0062B60493FEE7099B5A68019BD21A069B7A
:1097CC005A60099B019A5A60069800F0F7F81B4BF7
:1097DC001A68099B5B68D31A184A1360174B1A68EE
:1097EC00184B1B689A4203D2144B1B68154A136022
:1097FC00099B5A68104B1B681A43099B5A60099BBA
:10980C0000221A6001F0F4F8079B03F00703002B09
:10981C000BD04FF0500372B683F31188BFF36F8FE8
:10982C00BFF34F8F62B60393FEE7079B18460BB04E
:10983C005DF804FBAC0A0200B80A0200B00A020090
:10984C00A40A0200B40A020000B587B00190019B83
:10985C000593019B002B4AD008235B42059A1344C5
:10986C000593059B0493049B5A68234B1B68134078
:10987C00002B0BD14FF0500372B683F31188BFF35A
:10988C006F8FBFF34F8F62B60393FEE7049B1B6889
:10989C00002B0BD04FF0500372B683F31188BFF33B
:1098AC006F8FBFF34F8F62B60293FEE7049B5A682B
:1098BC00114B1B681340002B19D0049B1B68002B09
:1098CC0015D1049B5A680C4B1B68DB431A40049B54
:1098DC005A6001F083F8049B5A68084B1B681344C8
:1098EC00064A1360049800F069F801F081F800BF93
:1098FC0007B05DF804FB00BFB80A0200B00A020012
:10990C0084B04FF470530293264B0393039B03F0E4
:10991C000703002B0CD0039B07330393039B23F00B
:10992C0007030393029A039BD31A1E4A1344029310
:10993C00039B01931C4A019B13601B4B00225A6032
:10994C00019B029A134403930822039B9B1A0393D3
:10995C00039B23F007030393039B144A1360134BDD
:10996C001B6800225A60114B1B6800221A60019B75
:10997C000093009B039AD21A009B5A600B4B1A68F7
:10998C00009B1A60009B5B68094A1360009B5B6834
:10999C00084A1360084B4FF000421A6000BF04B035
:1099AC00704700BFA4CE0100A40A0200AC0A02005A
:1099BC00B40A0200B00A0200B80A020084B0019096
:1099CC00264B039302E0039B1B680393039B1B68CA
:1099DC00019A9A42F7D8039B0293039B5B68029A05
:1099EC001344019A9A4208D1039B5A68019B5B6805
:1099FC001A44039B5A60039B0193019B0293019BA6
:109A0C005B68029A1A44039B1B689A4218D1039B09
:109A1C001A68134B1B689A420DD0019B5A68039B22
:109A2C001B685B681A44019B5A60039B1B681A688D
:109A3C00019B1A6008E00A4B1A68019B1A6003E04C
:109A4C00039B1A68019B1A60039A019B9A4202D0ED
:109A5C00039B019A1A6000BF04B07047A40A02006D
:109A6C00AC0A020082B00190019B03F10802019B39
:109A7C005A60019B4FF0FF329A60019B03F1080280
:109A8C00019BDA60019B03F10802019B1A61019BA7
:109A9C0000221A6000BF02B0704782B00190019B97
:109AAC0000221A6100BF02B0704784B0019000918F
:109ABC00019B5B680393009B039A5A60039B9A6813
:109ACC00009B9A60039B9B68009A5A60039B009AC8
:109ADC009A60009B019A1A61019B1B685A1C019B9E
:109AEC001A6000BF04B0704784B001900091009BD5
:109AFC001B680293029BB3F1FF3F03D1019B1B69CF
:109B0C0003930CE0019B0833039302E0039B5B6817
:109B1C000393039B5B681B68029A9A42F6D2039BE1
:109B2C005A68009B5A60009B5B68009A9A60009B85
:109B3C00039A9A60039B009A5A60009B019A1A61DF
:109B4C00019B1B685A1C019B1A6000BF04B0704734
:109B5C0084B00190019B1B690393019B5B68019A84
:109B6C0092689A60019B9B68019A52685A60039BA9
:109B7C005B68019A9A4203D1019B9A68039B5A60D5
:109B8C00019B00221A61039B1B685A1E039B1A60DF
:109B9C00039B1B68184604B07047000000B585B0E5
:109BAC0001900091019B0393039B002B0BD14FF071
:109BBC00500372B683F31188BFF36F8FBFF34F8FCF
:109BCC0062B60293FEE701F0A1FF039B1A68039BA8
:109BDC00DB6B0399096C01FB03F31A44039B5A607A
:109BEC00039B00229A63039B1A68039B9A60039B56
:109BFC001A68039BDB6B013B0399096C01FB03F3B4
:109C0C001A44039BDA60039BFF2283F84420039BD6
:109C1C00FF2283F84520009B002B14D1039B1B696A
:109C2C00002B1AD0039B1033184601F0F1F80346B1
:109C3C00002B12D00C4B4FF080521A60BFF34F8F99
:109C4C00BFF36F8F09E0039B10331846FFF70AFF31
:109C5C00039B24331846FFF705FF01F085FF012312
:109C6C00184605B05DF804FB04ED00E000B58FB0BC
:109C7C000590049103920293059B002B0BD14FF09E
:109C8C00500372B683F31188BFF36F8FBFF34F8FFE
:109C9C0062B60C93FEE7029B002B0BD14FF05003E6
:109CAC0072B683F31188BFF36F8FBFF34F8F62B619
:109CBC000B93FEE7039B002B02D0049B002B01D0DF
:109CCC00012300E00023002B0BD14FF0500372B6A0
:109CDC0083F31188BFF36F8FBFF34F8F62B60A9374
:109CEC00FEE7039B002B02D1049B002B01D1012327
:109CFC0000E00023002B0BD14FF0500372B683F31E
:109D0C001188BFF36F8FBFF34F8F62B60993FEE7D5
:109D1C0050230793079B502B0BD04FF0500372B678
:109D2C0083F31188BFF36F8FBFF34F8F62B6089325
:109D3C00FEE7029B0D930D9B002B0DD00D9B01227A
:109D4C0083F846209DF840200D9B00931346039A00
:109D5C000499059800F005F80D9B18460FB05DF8B6
:109D6C0004FB00B585B00390029101928DF803308D
:109D7C00029B002B03D1069B069A1A6002E0069BFD
:109D8C00019A1A60069B039ADA63069B029A1A647C
:109D9C0001210698FFF702FF069B9DF8032083F82C
:109DAC004C2000BF05B05DF804FB000000B58FB07F
:109DBC00039002910192009300230D93039B0C934B
:109DCC000C9B002B0BD14FF0500372B683F3118810
:109DDC00BFF36F8FBFF34F8F62B60A93FEE7029B00
:109DEC00002B03D10C9B1B6C002B01D1012300E039
:109DFC000023002B0BD14FF0500372B683F3118864
:109E0C00BFF36F8FBFF34F8F62B60993FEE7009BD2
:109E1C00022B03D10C9BDB6B012B01D1012300E046
:109E2C000023002B0BD14FF0500372B683F3118833
:109E3C00BFF36F8FBFF34F8F62B60893FEE701F04D
:109E4C0099F90346002B02D1019B002B01D1012370
:109E5C0000E00023002B0BD14FF0500372B683F3BC
:109E6C001188BFF36F8FBFF34F8F62B60793FEE776
:109E7C0001F04CFE0C9B9A6B0C9BDB6B9A4202D351
:109E8C00009B022B29D1009A02990C9800F00AFA37
:109E9C000B900C9B5B6A002B10D00C9B2433184648
:109EAC0000F0B6FF0346002B13D03F4B4FF080520F
:109EBC001A60BFF34F8FBFF36F8F0AE00B9B002B21
:109ECC0007D0394B4FF080521A60BFF34F8FBFF35E
:109EDC006F8F01F049FE012361E0019B002B03D140
:109EEC0001F042FE00235AE00D9B002B05D105AB7F
:109EFC00184600F0F1FF01230D9301F035FE00F040
:109F0C006DFD01F003FE0C9B93F844305BB2B3F192
:109F1C00FF3F03D10C9B002283F844200C9B93F849
:109F2C0045305BB2B3F1FF3F03D10C9B002283F8A9
:109F3C00452001F019FE01AA05AB1146184600F0A8
:109F4C00DDFF0346002B24D10C9800F0A5FA034644
:109F5C00002B18D00C9B1033019A1146184600F0B8
:109F6C0007FF0C9800F02CFA00F042FD0346002B82
:109F7C007FF47EAF0C4B4FF080521A60BFF34F8FC3
:109F8C00BFF36F8F74E70C9800F01AFA00F030FDF5
:109F9C006EE70C9800F014FA00F02AFD0023184626
:109FAC000FB05DF804FB00BF04ED00E000B58FB00E
:109FBC000390029101920093039B0C930C9B002B3A
:109FCC000BD14FF0500372B683F31188BFF36F8F30
:109FDC00BFF34F8F62B60993FEE7029B002B03D1B0
:109FEC000C9B1B6C002B01D1012300E00023002BE8
:109FFC000BD14FF0500372B683F31188BFF36F8F00
:10A00C00BFF34F8F62B60893FEE7009B022B03D180
:10A01C000C9BDB6B012B01D1012300E00023002BF7
:10A02C000BD14FF0500372B683F31188BFF36F8FCF
:10A03C00BFF34F8F62B60793FEE701F0E1FDEFF33C
:10A04C0011824FF0500372B683F31188BFF36F8FF8
:10A05C00BFF34F8F62B606920593069B0B930C9B36
:10A06C009A6B0C9BDB6B9A4202D3009B022B2CD17C
:10A07C000C9B93F845308DF82B30009A02990C9874
:10A08C0000F010F99DF92B30B3F1FF3F12D10C9B6E
:10A09C005B6A002B16D00C9B2433184600F0B8FEDC
:10A0AC000346002B0ED0019B002B0BD0019B0122F1
:10A0BC001A6007E09DF82B300133DBB25AB20C9BCF
:10A0CC0083F8452001230D9301E000230D930B9B96
:10A0DC000493049B83F311880D9B18460FB05DF815
:10A0EC0004FB000000B58DB0039002910192002397
:10A0FC000B93039B0A930A9B002B0BD14FF050033D
:10A10C0072B683F31188BFF36F8FBFF34F8F62B6B4
:10A11C000893FEE7029B002B03D10A9B1B6C002BC0
:10A12C0001D1012300E00023002B0BD14FF0500391
:10A13C0072B683F31188BFF36F8FBFF34F8F62B684
:10A14C000793FEE701F016F80346002B02D1019BA2
:10A15C00002B01D1012300E00023002B0BD14FF089
:10A16C00500372B683F31188BFF36F8FBFF34F8F19
:10A17C0062B60693FEE701F0C9FC0A9B9B6B099340
:10A18C00099B002B1FD002990A9800F0F4F8099B48
:10A19C005A1E0A9B9A630A9B1B69002B0FD00A9BC1
:10A1AC001033184600F034FE0346002B07D03C4B0E
:10A1BC004FF080521A60BFF34F8FBFF36F8F01F0D7
:10A1CC00D3FC012367E0019B002B03D101F0CCFCF5
:10A1DC00002360E00B9B002B05D104AB184600F06C
:10A1EC007BFE01230B9301F0BFFC00F0F7FB01F0A9
:10A1FC008DFC0A9B93F844305BB2B3F1FF3F03D163
:10A20C000A9B002283F844200A9B93F845305BB2EA
:10A21C00B3F1FF3F03D10A9B002283F8452001F0E4
:10A22C00A3FC01AA04AB1146184600F067FE0346D6
:10A23C00002B23D10A9800F01AF90346002B17D0F3
:10A24C000A9B2433019A1146184600F091FD0A9896
:10A25C0000F0B6F800F0CCFB0346002B8BD1104B72
:10A26C004FF080521A60BFF34F8FBFF36F8F82E7AE
:10A27C000A9800F0A5F800F0BBFB7CE70A9800F008
:10A28C009FF800F0B5FB0A9800F0F1F80346002B9C
:10A29C003FF471AF002318460DB05DF804FB00BF0E
:10A2AC0004ED00E000B587B0039002910192002309
:10A2BC000593039B9B6B0493039B1B6C002B0DD191
:10A2CC00039B1B68002B4DD1039B5B68184600F069
:10A2DC006BFF0590039B00225A6043E0019B002B0F
:10A2EC0019D1039B9868039B1B6C1A46029901F0C9
:10A2FC006BFE039B9A68039B1B6C1A44039B9A602E
:10A30C00039B9A68039B5B689A422BD3039B1A6846
:10A31C00039B9A6026E0039BD868039B1B6C1A4630
:10A32C00029901F051FE039BDA68039B1B6C5B42A4
:10A33C001A44039BDA60039BDA68039B1B689A42FE
:10A34C0007D2039B5A68039B1B6C5B421A44039B0A
:10A35C00DA60019B022B05D1049B002B02D0049BDD
:10A36C00013B0493049B5A1C039B9A63059B184660
:10A37C0007B05DF804FB00B583B001900091019B20
:10A38C001B6C002B18D0019BDA68019B1B6C1A44C8
:10A39C00019BDA60019BDA68019B5B689A4203D3EC
:10A3AC00019B1A68019BDA60019BD968019B1B6CAD
:10A3BC001A46009801F008FE00BF03B05DF804FBDC
:10A3CC0000B585B0019001F0A1FB019B93F84530DD
:10A3DC008DF80F3013E0019B5B6A002B14D0019BAE
:10A3EC002433184600F014FD0346002B01D000F076
:10A3FC00E9FD9DF80F30013BDBB28DF80F309DF974
:10A40C000F30002BE7DC00E000BF019BFF2283F83C
:10A41C00452001F0A9FB01F079FB019B93F8443036
:10A42C008DF80E3013E0019B1B69002B14D0019B9F
:10A43C001033184600F0ECFC0346002B01D000F062
:10A44C00C1FD9DF80E30013BDBB28DF80E309DF94D
:10A45C000E30002BE7DC00E000BF019BFF2283F8ED
:10A46C00442001F081FB00BF05B05DF804FB00B592
:10A47C0085B0019001F04AFB019B9B6B002B02D134
:10A48C000123039301E00023039301F06DFB039B75
:10A49C00184605B05DF804FB00B585B0019001F0DD
:10A4AC0035FB019B9A6B019BDB6B9A4202D101231A
:10A4BC00039301E00023039301F056FB039B184622
:10A4CC0005B05DF804FB000084B0019000910023FE
:10A4DC00039314E00D4A039B52F83330002B0BD13D
:10A4EC000A49039B009A41F83320084A039BDB007E
:10A4FC001344019A5A6005E0039B01330393039BB9
:10A50C00072BE7D900BF04B0704700BF3811020019
:10A51C0000B587B0039002910192039B059301F063
:10A52C00F5FA059B93F844305BB2B3F1FF3F03D1CE
:10A53C00059B002283F84420059B93F845305BB2C1
:10A54C00B3F1FF3F03D1059B002283F8452001F0B6
:10A55C000BFB059B9B6B002B06D1059B2433019AAF
:10A56C000299184600F028FC0598FFF729FF00BF58
:10A57C0007B05DF804FB00B58FB00790069105920B
:10A58C000493119B002B0BD14FF0500372B683F345
:10A59C001188BFF36F8FBFF34F8F62B60C93FEE73A
:10A5AC00129B002B0BD14FF0500372B683F3118822
:10A5BC00BFF36F8FBFF34F8F62B60B93FEE75C2335
:10A5CC000893089B5C2B0BD04FF0500372B683F3AF
:10A5DC001188BFF36F8FBFF34F8F62B60A93FEE7FC
:10A5EC00129B002B1DD0119B002B1AD0129B0D938C
:10A5FC000D9B119A1A630D9B022283F8592000239C
:10A60C0003930D9B029309AB0193109B0093049B46
:10A61C00059A0699079800F052F80D9800F0D6F8B4
:10A62C0001E000230993099B18460FB05DF804FB69
:10A63C0000B58DB00790069104931346ADF8163013
:10A64C00BDF816309B001846FFF738F80990099BA7
:10A65C00002B0ED05C20FFF731F80B900B9B002BDE
:10A66C0003D00B9B099A1A6305E00998FFF7ECF8E5
:10A67C0001E000230B930B9B002B18D00B9B0022AB
:10A68C0083F85920BDF81620002303930B9B0293EB
:10A69C000F9B01930E9B0093049B0699079800F067
:10A6AC000EF80B9800F092F801230A9302E04FF099
:10A6BC00FF330A930A9B18460DB05DF804FB00B5F6
:10A6CC0089B003900291019200930C9B186B019B33
:10A6DC009B001A46A52101F011FD0C9B1A6B0199E8
:10A6EC006FF040430B449B0013440693069B23F0EE
:10A6FC0007030693069B03F00703002B0BD04FF0C8
:10A70C00500372B683F31188BFF36F8FBFF34F8F73
:10A71C0062B60593FEE70023079312E0029A079BAB
:10A72C00134419780C9A079B134434330A461A7055
:10A73C00029A079B13441B78002B06D0079B01330E
:10A74C000793079B0F2BE9D900E000BF0C9B00225D
:10A75C0083F843200A9B372B01D937230A930C9B90
:10A76C000A9ADA620C9B0A9ADA640C9B00221A652C
:10A77C000C9B04331846FFF790F90C9B18331846C2
:10A78C00FFF78BF90C9B0C9A1A610A9BC3F13802E8
:10A79C000C9B9A610C9B0C9A5A620C9B00225A657A
:10A7AC000C9B002283F85820009A0399069801F01C
:10A7BC00C1F802460C9B1A600B9B002B02D00B9B22
:10A7CC000C9A1A6000BF09B05DF804FB00B583B0A9
:10A7DC00019001F09BF92D4B1B6801332B4A136040
:10A7EC002B4B1B68002B09D1294A019B1360274B6B
:10A7FC001B68012B10D100F003FC0DE0254B1B68EE
:10A80C00002B09D1224B1B68DA6A019BDB6A9A4246
:10A81C0002D81F4A019B13601F4B1B6801331E4A51
:10A82C0013601D4B1A68019B5A64019BDA6A1B4B1F
:10A83C001B689A4203D9019BDB6A184A1360019B7F
:10A84C00DA6A13469B0013449B00154A1A44019B79
:10A85C00043319461046FFF728F901F085F90D4B22
:10A86C001B68002B0ED00A4B1B68DA6A019BDB6A53
:10A87C009A4207D20B4B4FF080521A60BFF34F8FA6
:10A88C00BFF36F8F00BF03B05DF804FB900F0200A5
:10A89C00BC0A02009C0F0200AC0F0200980F0200D1
:10A8AC00C00A020004ED00E000B585B00190002361
:10A8BC000393019B002B18D0134B1B68002B0BD060
:10A8CC004FF0500372B683F31188BFF36F8FBFF351
:10A8DC004F8F62B60293FEE700F080F800210198DA
:10A8EC0000F0D0FC00F084F80390039B002B07D100
:10A8FC00064B4FF080521A60BFF34F8FBFF36F8F30
:10A90C0000BF05B05DF804FBB80F020004ED00E0D9
:10A91C0000B58BB0002306930023059304AA05A968
:10A92C0006AB1846FEF7A0FE0499059B069A029208
:10A93C0001930023009300230A4622492248FFF783
:10A94C001AFE0246214B1A60204B1B68002B02D0CA
:10A95C000123099301E000230993099B012B02D1E8
:10A96C0000F0E4FC0990099B012B17D14FF0500328
:10A97C0072B683F31188BFF36F8FBFF34F8F62B63C
:10A98C000893134B4FF0FF321A60124B01221A60DE
:10A99C00114B00221A6001F039F80FE0099BB3F15A
:10A9AC00FF3F0BD14FF0500372B683F31188BFF306
:10A9BC006F8FBFF34F8F62B60793FEE700BF0BB0EC
:10A9CC005DF804FB5CC30000E1AF0000B40F0200B3
:10A9DC00B00F02009C0F0200940F0200034B1B6887
:10A9EC000133024A136000BF704700BFB80F02006A
:10A9FC0000B585B00023039300230293424B1B68E0
:10AA0C00002B0BD14FF0500372B683F31188BFF3B8
:10AA1C006F8FBFF34F8F62B60093FEE701F076F8AD
:10AA2C00394B1B68013B384A1360374B1B68002BB2
:10AA3C0062D1364B1B68002B5ED02FE0344BDB68A9
:10AA4C00DB680393039B18331846FFF781F8039BCD
:10AA5C0004331846FFF77CF8039BDA6A2D4B1B680E
:10AA6C009A4203D9039BDB6A2A4A1360039BDA6A76
:10AA7C0013469B0013449B00274A1A44039B043340
:10AA8C0019461046FFF711F8039BDA6A234B1B6833
:10AA9C00DB6A9A4202D3224B01221A601C4B1B68C0
:10AAAC00002BCBD1039B002B01D000F043FB1D4BA3
:10AABC001B680193019B002B10D000F041F803465A
:10AACC00002B02D0164B01221A60019B013B019313
:10AADC00019B002BF1D1134B00221A60104B1B6809
:10AAEC00002B09D0012302930F4B4FF080521A60B8
:10AAFC00BFF34F8FBFF36F8F01F036F8029B1846F0
:10AB0C0005B05DF804FB00BFB80F0200900F020007
:10AB1C00500F0200980F0200C00A0200BC0A02008B
:10AB2C00A40F0200A00F020004ED00E082B0034B62
:10AB3C001B680193019B184602B07047940F0200EA
:10AB4C0000B587B000230593514B1B68002B40F0D8
:10AB5C008F80504B1B68013304934E4A049B136047
:10AB6C00049B002B21D14C4B1B681B68002B0BD07A
:10AB7C004FF0500372B683F31188BFF36F8FBFF39E
:10AB8C004F8F62B60093FEE7434B1B680393434B16
:10AB9C001B68414A1360414A039B1360404B1B687E
:10ABAC0001333F4A136000F0C5FA3E4B1B68049A10
:10ABBC009A424ED3384B1B681B68002B01D10123E2
:10ABCC0000E00023002B04D0364B4FF0FF321A600C
:10ABDC003FE0314B1B68DB68DB680293029B5B68D0
:10ABEC000193049A019B9A4203D22E4A019B136053
:10ABFC002FE0029B04331846FEF7AAFF029B9B6AC8
:10AC0C00002B04D0029B18331846FEF7A1FF029BC1
:10AC1C00DA6A254B1B689A4203D9029BDB6A224AEB
:10AC2C001360029BDA6A13469B0013449B001F4A75
:10AC3C001A44029B043319461046FEF736FF029B5A
:10AC4C00DA6A1B4B1B68DB6A9A42B3D30123059368
:10AC5C00B0E7174B1B68DA6A144913469B00134480
:10AC6C009B000B441B68012B07D90123059304E0BF
:10AC7C00104B1B6801330F4A13600F4B1B68002BE2
:10AC8C0001D001230593059B184607B05DF804FB22
:10AC9C00B80F0200940F0200480F02004C0F020084
:10ACAC00A80F0200B00F0200980F0200C00A0200A9
:10ACBC00BC0A0200A00F0200A40F020084B0274BB4
:10ACCC001B68002B03D0264B01221A6042E0244B58
:10ACDC0000221A60234B1B68039311E0039B002B8B
:10ACEC000BD14FF0500372B683F31188BFF36F8F03
:10ACFC00BFF34F8F62B60193FEE7039B013B0393B7
:10AD0C001949039A13469B0013449B000B441B6880
:10AD1C00002BE3D0039A13469B0013449B00124A6A
:10AD2C0013440293029B5B685A68029B5A60029B15
:10AD3C005A68029B08339A4204D1029B5B685A689A
:10AD4C00029B5A60029B5B68DB68084A1360054AE9
:10AD5C00039B136000BF04B0704700BFB80F020024
:10AD6C00A40F0200980F0200C00A0200BC0A0200E5
:10AD7C0000B585B001900091019B002B0BD14FF0D9
:10AD8C00500372B683F31188BFF36F8FBFF34F8FED
:10AD9C0062B60393FEE7074B1B68183319460198FC
:10ADAC00FEF7A2FE0121009800F06CFA00BF05B07E
:10ADBC005DF804FBBC0A020000B587B00390029159
:10ADCC000192039B002B0BD14FF0500372B683F30F
:10ADDC001188BFF36F8FBFF34F8F62B60593FEE7F9
:10ADEC000A4B1B68183319460398FEF75EFE019B4D
:10ADFC00002B02D04FF0FF3302930199029800F020
:10AE0C0041FA00BF07B05DF804FB00BFBC0A0200AA
:10AE1C0000B587B00190019BDB68DB680493049B51
:10AE2C00002B0BD14FF0500372B683F31188BFF394
:10AE3C006F8FBFF34F8F62B60393FEE7049B1833FB
:10AE4C001846FEF785FE1E4B1B68002B1DD1049B7C
:10AE5C0004331846FEF77CFE049BDA6A194B1B6818
:10AE6C009A4203D9049BDB6A164A1360049BDA6A84
:10AE7C0013469B0013449B00134A1A44049B04334F
:10AE8C0019461046FEF711FE05E0049B18331946CF
:10AE9C000E48FEF70AFE049BDA6A0D4B1B68DB6A50
:10AEAC009A4205D9012305930A4B01221A6001E04D
:10AEBC0000230593059B184607B05DF804FB00BF03
:10AECC00B80F0200980F0200C00A0200500F0200D7
:10AEDC00BC0A0200A40F020082B00190054B1A6854
:10AEEC00019B1A60044B1A68019B5A6000BF02B0A8
:10AEFC00704700BFA80F0200940F020000B589B084
:10AF0C0001900091019B002B0BD14FF0500372B6B6
:10AF1C0083F31188BFF36F8FBFF34F8F62B6049327
:10AF2C00FEE7009B002B0BD14FF0500372B683F35E
:10AF3C001188BFF36F8FBFF34F8F62B60393FEE799
:10AF4C0000F0E4FD1D4B1B680693019B5B68069AA1
:10AF5C00D31A0593009B1B68B3F1FF3F02D100236A
:10AF6C00079323E0019B1A68154B1B689A4207D084
:10AF7C00019B5B68069A9A4202D30123079315E062
:10AF8C00009B1B68059A9A420BD2009B1A68059B82
:10AF9C00D21A009B1A600198FFF79EFF00230793BB
:10AFAC0004E0009B00221A600123079300F0DCFDF3
:10AFBC00079B184609B05DF804FB00BF940F020014
:10AFCC00A80F0200024B01221A6000BF704700BF9D
:10AFDC00A40F020000B583B0019000F04FF8064BAF
:10AFEC001B68012BF9D9054B4FF080521A60BFF347
:10AFFC004F8FBFF36F8FF0E7C00A020004ED00E043
:10B00C0000B583B0002301930CE0019A13469B001A
:10B01C0013449B00114A13441846FEF723FD019B71
:10B02C0001330193019B372BEFD90D48FEF71AFD25
:10B03C000C48FEF717FD0C48FEF714FD0B48FEF705
:10B04C0011FD0B48FEF70EFD0A4B054A1A600A4B20
:10B05C00044A1A6000BF03B05DF804FBC00A02008A
:10B06C00200F0200340F0200500F0200640F020088
:10B07C007C0F0200480F02004C0F020000B583B099
:10B08C0019E000F043FD104BDB68DB680193019B7A
:10B09C0004331846FEF75CFD0C4B1B68013B0B4A56
:10B0AC0013600B4B1B68013B094A136000F05CFDFD
:10B0BC00019800F00FF8064B1B68002BE1D100BF84
:10B0CC0003B05DF804FB00BF640F0200900F020098
:10B0DC00780F020000B585B00190019B93F85930B0
:10B0EC00002B08D1019B1B6B1846FEF7ADFB01989A
:10B0FC00FEF7AAFB19E0019B93F85930012B03D101
:10B10C000198FEF7A1FB10E0019B93F85930022B3C
:10B11C000BD04FF0500372B683F31188BFF36F8FCF
:10B12C00BFF34F8F62B60393FEE700BF05B05DF827
:10B13C0004FB000082B00D4B1B681B68002B01D177
:10B14C00012300E00023002B04D0094B4FF0FF3209
:10B15C001A6008E0054B1B68DB68DB680193019BF8
:10B16C005B68034A136000BF02B07047480F0200CF
:10B17C00B00F020082B00A4B1B68002B02D10123D6
:10B18C00019308E0074B1B68002B02D102230193AB
:10B19C0001E000230193019B184602B0704700BFE9
:10B1AC009C0F0200B80F020000B587B00190019B04
:10B1BC00049300230593019B002B58D02E4B1B6846
:10B1CC00049A9A420BD04FF0500372B683F3118855
:10B1DC00BFF36F8FBFF34F8F62B60393FEE7049BF1
:10B1EC001B6D002B0BD14FF0500372B683F31188FB
:10B1FC00BFF36F8FBFF34F8F62B60293FEE7049BD2
:10B20C001B6D5A1E049B1A65049BDA6A049BDB6C4B
:10B21C009A422CD0049B1B6D002B28D1049B043329
:10B22C001846FEF795FC049BDA6C049BDA62049BCF
:10B23C00DB6AC3F13802049B9A61049BDA6A0F4BF8
:10B24C001B689A4203D9049BDB6A0C4A1360049B6B
:10B25C00DA6A13469B0013449B00094A1A44049B68
:10B26C00043319461046FEF720FC01230593059B79
:10B27C00184607B05DF804FBBC0A0200980F0200E8
:10B28C00C00A020000B585B001900091214B1B68EB
:10B29C000393214B1B6804331846FEF759FC019BA2
:10B2AC00B3F1FF3F0AD1009B002B07D01A4B1B6850
:10B2BC00043319461948FEF7F8FB26E0039A019B64
:10B2CC0013440293144B1B68029A5A60029A039B14
:10B2DC009A4209D2124B1A680F4B1B680433194659
:10B2EC001046FEF701FC10E00E4B1A680A4B1B6867
:10B2FC00043319461046FEF7F7FB0B4B1B68029AFA
:10B30C009A4202D2084A029B136000BF05B05DF856
:10B31C0004FB00BF940F0200BC0A02007C0F020069
:10B32C004C0F0200480F0200B00F020000B58BB0AA
:10B33C000023099300F0BEFA1B4B1B68002B1FD097
:10B34C00002307930023069305AA06A907AB18460A
:10B35C00FEF79EF90599069B079A02920193022328
:10B36C00009300230A4611491148FFF704F90246DD
:10B37C00104B1A600F4B1B68002B01D00123099353
:10B38C00099B002B0BD14FF0500372B683F311883D
:10B39C00BFF36F8FBFF34F8F62B60893FEE7099B25
:10B3AC0018460BB05DF804FBEC0F020064C3000000
:10B3BC00D9B40000F00F020000B58BB003900291DD
:10B3CC000192009300230993039B002B0BD14FF0A8
:10B3DC00500372B683F31188BFF36F8FBFF34F8F97
:10B3EC0062B60893FEE7184B1B68002B27D0029B14
:10B3FC000493019B0593039B0693029B052B16DC80
:10B40C00FFF7B8FE0346022B08D10F4B186804A9AE
:10B41C0000230C9AFEF7CAFC099010E00A4B18683E
:10B42C0004A900230022FEF7C1FC099007E0064B9B
:10B43C00186804A90023009AFEF7B8FD0990099B2F
:10B44C0018460BB05DF804FBEC0F020000B589B098
:10B45C00039002911C4B1B68DB68DB680793079B0E
:10B46C0004331846FEF774FB079BDB69012B23D1D1
:10B47C00079B9A69039BD118039B029A079800F0CB
:10B48C00BFF80346002B17D0002300930023039A28
:10B49C0000210798FFF790FF0690069B002B0BD11D
:10B4AC004FF0500372B683F31188BFF36F8FBFF365
:10B4BC004F8F62B60593FEE7079B5B6A0798984728
:10B4CC0000BF09B05DF804FBE40F020000B585B0C5
:10B4DC00019002AB184600F055F80390029B1946F8
:10B4EC00039800F003F800F0CDF8F2E700B585B052
:10B4FC0001900091FFF772FA02AB184600F062F867
:10B50C000390029B002B30D1009B002B0AD1019A97
:10B51C00039B9A4206D8FFF76BFA03990198FFF741
:10B52C0095FF24E0009B002B08D0134B1B681B6875
:10B53C00002B0CBF01230023DBB200930F4B1868C8
:10B54C00019A039BD31A009A1946FEF7E1FFFFF705
:10B55C004FFA0346002B0AD1094B4FF080521A6068
:10B56C00BFF34F8FBFF36F8F01E0FFF741FA00BFBE
:10B57C0005B05DF804FB00BFE80F0200EC0F020001
:10B58C0004ED00E084B001900D4B1B681B68002B90
:10B59C000CBF01230023DBB21A46019B1A60019BEE
:10B5AC001B68002B05D1064B1B68DB681B680393DB
:10B5BC0001E000230393039B184604B0704700BFBF
:10B5CC00E40F020000B585B00190FFF7AFFA0390CD
:10B5DC000A4B1B68039A9A4205D200F009F9019BA9
:10B5EC0001221A6002E0019B00221A60034A039BAD
:10B5FC001360039B184605B05DF804FBF40F0200C2
:10B60C0000B587B00390029101920093002305933B
:10B61C00039B029A5A60039B039A1A61029A019B3C
:10B62C009A4212D8019A009BD21A039B9B699A42A8
:10B63C0002D3012305931BE0104B1A68039B0433C0
:10B64C0019461046FEF750FA12E0019A009B9A42F6
:10B65C0006D2029A009B9A4202D30123059307E07B
:10B66C00074B1A68039B043319461046FEF73CFA45
:10B67C00059B184607B05DF804FB00BFE80F0200FD
:10B68C00E40F020000B58FB0A0E0039B002B19DA89
:10B69C0003AB04330D930D9B002B0BD14FF05003D8
:10B6AC0072B683F31188BFF36F8FBFF34F8F62B6FF
:10B6BC000993FEE70D9B1B680D9A50680D9A9268D2
:10B6CC0011469847039B002B7FDB059B0C930C9B2F
:10B6DC005B69002B04D00C9B04331846FEF738FA38
:10B6EC0002AB1846FFF76EFF0B90039B092B6DD82E
:10B6FC0001A252F823F000BF2DB700002DB70000B7
:10B70C002DB70000D9B700008BB70000C5B70000FB
:10B71C002DB700002DB70000D9B700008BB7000083
:10B72C00049A0C9B9B69D118049B0B9A0C98FFF7FD
:10B73C0067FF0346002B49D00C9B5B6A0C9898471B
:10B74C000C9BDB69012B41D1049A0C9B9B691A441D
:10B75C0000230093002300210C98FFF72DFE0A9084
:10B76C000A9B002B32D14FF0500372B683F3118831
:10B77C00BFF36F8FBFF34F8F62B60893FEE7049A47
:10B78C000C9B9A610C9B9B69002B0BD14FF05003C7
:10B79C0072B683F31188BFF36F8FBFF34F8F62B60E
:10B7AC000793FEE70C9B9A690B9BD1180B9B0B9A8A
:10B7BC000C98FFF725FF09E00C9B93F82C30002B1D
:10B7CC0004D10C98FEF740F800E000BF074B1B6853
:10B7DC0003A900221846FEF785FC0346002B7FF4D4
:10B7EC0054AF00BF0FB05DF804FB00BFEC0F0200BC
:10B7FC0000B589B046E02D4B1B68DB681B680793CE
:10B80C002A4B1B68DB68DB680693069B04331846DF
:10B81C00FEF79EF9069B5B6A06989847069BDB69C8
:10B82C00012B2FD1069B9B69079A13440593059A0C
:10B83C00079B9A420ED9069B059A5A60069B069A5C
:10B84C001A611A4B1A68069B043319461046FEF708
:10B85C004BF917E0002300930023079A0021069868
:10B86C00FFF7AAFD0490049B002B0BD14FF0500363
:10B87C0072B683F31188BFF36F8FBFF34F8F62B62D
:10B88C000293FEE7094B1B681B68002BB3D1074BD7
:10B89C001B680393064B1B68044A1360044A039B02
:10B8AC00136000BF09B05DF804FB00BFE40F020099
:10B8BC00E80F020000B583B000F028F9154B1B68A7
:10B8CC00002B20D11448FEF7CDF81448FEF7CAF827
:10B8DC00134B114A1A60134B104A1A600023009341
:10B8EC00114B124A10210A20FEF7C0F90246094BEF
:10B8FC001A60084B1B68002B05D0064B1B680C49C3
:10B90C001846FEF7E1FD00F02FF900BF03B05DF81B
:10B91C0004FB00BFEC0F0200BC0F0200D00F0200B2
:10B92C00E40F0200E80F020098100200F80F02006A
:10B93C006CC3000084B0039002910192039B043B02
:10B94C000393039B4FF080721A60039B043B039399
:10B95C00029B23F00102039B1A60039B043B03939D
:10B96C000B4A039B1A60039B143B0393019A039BA2
:10B97C001A60039B043B0393039B6FF002021A6053
:10B98C00039B203B0393039B184604B0704700BFF6
:10B99C00A1B9000084B000230193114B1B68B3F1D3
:10B9AC00FF3F0BD04FF0500372B683F31188BFF3F7
:10B9BC006F8FBFF34F8F62B60393FEE74FF05003C8
:10B9CC0072B683F31188BFF36F8FBFF34F8F62B6DC
:10B9DC00029300BF019B002BFCD000BF04B070474A
:10B9EC009CC3010008480068006880F308884FF089
:10B9FC00000080F3148862B661B6BFF34F8FBFF3BB
:10BA0C006F8F00DF00BF00BF08ED00E000B585B010
:10BA1C00384B0393039B1B78DBB20193039BFF22F0
:10BA2C001A70039B1B78DBB28DF803309DF8033042
:10BA3C00DBB203F05003DAB22F4B1A702F4B0722F4
:10BA4C001A600BE02D4B1B68013B2C4A13609DF8D0
:10BA5C000330DBB25B00DBB28DF803309DF80330B2
:10BA6C00DBB203F08003802BECD0244B1B68C3F1BA
:10BA7C000703042B0BD04FF0500372B683F31188DD
:10BA8C00BFF36F8FBFF34F8F62B60293FEE71B4B72
:10BA9C001B681B02194A1360184B1B6803F4E06304
:10BAAC00164A1360019BDAB2039B1A70144B1B6885
:10BABC00134A43F470031360114B1B68104A43F094
:10BACC007043136000F074F80E4B00221A6000F003
:10BADC008DF80D4B1B680C4A43F040431360FFF785
:10BAEC0081FFFFF7EBF8FFF755FF0023184605B071
:10BAFC005DF804FB00E400E0E8100200EC1002002A
:10BB0C0020ED00E09CC3010034EF00E082B04FF068
:10BB1C00500372B683F31188BFF36F8FBFF34F8F4F
:10BB2C0062B601930E4B1B6801330D4A13600C4B2C
:10BB3C001B68012B10D10B4B1B68DBB2002B0BD0FD
:10BB4C004FF0500372B683F31188BFF36F8FBFF3BE
:10BB5C004F8F62B60093FEE700BF02B0704700BF84
:10BB6C009CC3010004ED00E082B0104B1B68002B5D
:10BB7C000BD14FF0500372B683F31188BFF36F8F64
:10BB8C00BFF34F8F62B60193FEE7084B1B68013B76
:10BB9C00064A1360054B1B68002B04D1002300934D
:10BBAC00009B83F3118800BF02B070479CC3010057
:10BBBC00094B00221A60094B00221A60084B1B68C3
:10BBCC00084AA2FB03239B09074A013B1360024B63
:10BBDC0007221A6000BF704710E000E018E000E098
:10BBEC0098C30100D34D621014E000E0DFF80C00A4
:10BBFC00016841F470010160704700BF88ED00E0FE
:10BC0C0084B0EFF305830393039B0F2B17D9174ACB
:10BC1C00039B13441B788DF80B30154B1B789DF848
:10BC2C000B209A420BD24FF0500372B683F311885B
:10BC3C00BFF36F8FBFF34F8F62B60193FEE70D4BCF
:10BC4C001B6803F4E0620C4B1B689A420BD94FF053
:10BC5C00500372B683F31188BFF36F8FBFF34F8F0E
:10BC6C0062B60093FEE700BF04B07047F0E300E05B
:10BC7C00E81002000CED00E0EC10020053B94AB9D8
:10BC8C00002908BF00281CBF4FF0FF314FF0FF30D8
:10BC9C0000F074B9ADF1080C6DE904CE00F006F8B3
:10BCAC00DDF804E0DDE9022304B070472DE9F0472C
:10BCBC00089E04468846002B40F085808A42154633
:10BCCC0048D9B2FA82F24AB1C2F1200701FA02F362
:10BCDC0020FA07F7954047EA030894404FEA154EBF
:10BCEC00230CB8FBFEF71FFA85FC0EFB178843EA02
:10BCFC00084307FB0CF1994209D9EB1807F1FF3007
:10BD0C0080F0E380994240F2E080023F2B445B1AC2
:10BD1C00A4B2B3FBFEF00EFB103344EA034400FB69
:10BD2C000CFCA44509D92C1900F1FF3380F0CB8011
:10BD3C00A44540F2C88002382C4440EA0740A4EBEA
:10BD4C000C0400271EB1D4400023C6E90043394639
:10BD5C00BDE8F087002A53D0B2FA82F2002A40F0F4
:10BD6C00B680491B4FEA154E1FFA85F80127B1FB27
:10BD7C00FEFC230C0EFB1C1143EA014308FB0CF1E7
:10BD8C00994207D9EB180CF1FF3002D2994200F21C
:10BD9C00EC808446591AA3B2B1FBFEF00EFB1014D2
:10BDAC0043EA044408FB00F8A04507D92C1900F11C
:10BDBC00FF3302D2A04500F2DC801846A4EB080445
:10BDCC0040EA0C40BEE78B4208D9002E78D0002701
:10BDDC00C6E9000138463946BDE8F087B3FA83F767
:10BDEC007FB98B4202D3824200F2BD80841A61EB90
:10BDFC00030301209846002EA9D0C6E90048A6E707
:10BE0C00FFDEC7F12005BB4022FA05FC4CEA030C0F
:10BE1C0001FA07F420FA05F821FA05F34FEA1C4E53
:10BE2C0048EA0404B3FBFEF9210C0EFB19331FFA8C
:10BE3C008CF841EA034309FB08FA9A4502FA07F227
:10BE4C0000FA07F10BD91CEB030309F1FF3080F06A
:10BE5C0088809A4540F28580A9F102096344A3EBDE
:10BE6C000A03A4B2B3FBFEF00EFB103344EA034406
:10BE7C0000FB08F8A04508D91CEB040400F1FF33C3
:10BE8C006BD2A04569D90238644440EA0940A4EB5E
:10BE9C000804A0FB02894C45C6464B4654D351D0EE
:10BEAC00002E69D0B1EB0E0264EB030404FA05F525
:10BEBC0022FA07F3FC401D43C6E90054002746E76D
:10BECC003746304643E7184637E707461FE7C2F1C7
:10BEDC00200320FA03F7954001FA02F021FA03F34C
:10BEEC004FEA154E3843010CB3FBFEF71FFA85F8E9
:10BEFC000EFB173341EA034107FB08F38B4204FAAC
:10BF0C0002F407D9691807F1FF3C28D28B4226D9D5
:10BF1C00023F2944CB1A81B2B3FBFEF00EFB103367
:10BF2C0041EA034100FB08F38B4207D9691800F181
:10BF3C00FF3C10D28B420ED902382944C91A40EA70
:10BF4C00074714E74145ABD2B8EB020E69EB0C0284
:10BF5C0001381346A4E76046F0E7184695E76746B4
:10BF6C00D8E781467BE7384645E7ACF1020C2B4419
:10BF7C0010E702382C4421E73746E8E6704700BF4B
:10BF8C0070B50D4E0D4D761BB61006D00024013445
:10BF9C0055F8043B9847A642F9D1094E094D761B3A
:10BFAC00FCF728F8B61006D00024013455F8043BF1
:10BFBC009847A642F9D170BD84C3010084C3010027
:10BFCC0090C3010084C30100844641EA000313F0CE
:10BFDC0003036DD1403A41D351F8043B40F8043B84
:10BFEC0051F8043B40F8043B51F8043B40F8043B47
:10BFFC0051F8043B40F8043B51F8043B40F8043B37
:10C00C0051F8043B40F8043B51F8043B40F8043B26
:10C01C0051F8043B40F8043B51F8043B40F8043B16
:10C02C0051F8043B40F8043B51F8043B40F8043B06
:10C03C0051F8043B40F8043B51F8043B40F8043BF6
:10C04C0051F8043B40F8043B51F8043B40F8043BE6
:10C05C0051F8043B40F8043B403ABDD2303211D386
:10C06C0051F8043B40F8043B51F8043B40F8043BC6
:10C07C0051F8043B40F8043B51F8043B40F8043BB6
:10C08C00103AEDD20C3205D351F8043B40F8043B86
:10C09C00043AF9D2043208D0D2071CBF11F8013B84
:10C0AC0000F8013B01D30B8803806046704700BF4A
:10C0BC00082A13D38B078DD010F003038AD0C3F159
:10C0CC000403D21ADB071CBF11F8013B00F8013B3B
:10C0DC0080D331F8023B20F8023B7BE7043AD9D3FA
:10C0EC00013A11F8013B00F8013BF9D20B780370CF
:10C0FC004B7843708B78837060467047F0B486073A
:10C10C0046D0541E002A3CD0CAB2034602E014F1B9
:10C11C00FF3436D303F8012B9D07F8D1032C29D912
:10C12C00CDB245EA05250F2C45EA054533D9A4F1D6
:10C13C001006360903F1200707EB061703F110026E
:10C14C0042E9045542E902551032BA42F8D1721C48
:10C15C0014F00C0F03EB021204F00F0613D0331F74
:10C16C0023F003030433134442F8045B9342FBD1E2
:10C17C0006F003042CB1C9B21C4403F8011B9C4209
:10C18C00FBD1F0BC704734461346002CF3D1F8E7D2
:10C19C0014460346C2E71A462646E0E72DE9F04F5F
:10C1AC00284B83B00F460190186800F06FF8264BAF
:10C1BC00D3F800A04FF00009DAF848618EB174682A
:10C1CC00651E0ED4013406EB84044FF001087FB1D8
:10C1DC00D4F80031BB420BD0013D6B1CA4F104041C
:10C1EC00F5D1184B186803B0BDE8F04F00F050B80B
:10C1FC0073682268013BAB420CBF7560C4F80090B9
:10C20C00002AE9D0D6F88811D6F804B008FA05FC53
:10C21C001CEA010F08D1904772685A45CCD1DAF864
:10C22C004831B342D8D0C7E7D6F88C31D4F8801057
:10C23C001CEA030F02D101989047EDE7084690479E
:10C24C00EAE700BFC8C7010074C300000023014621
:10C25C001A46184600F01EB838B50A4C0A4D641B35
:10C26C00A4100AD004F18043013B05EB8305013C8B
:10C27C0055F804399847002CF9D1BDE8384000F046
:10C28C004FB800BF94C3010090C30100704700BFBA
:10C29C00704700BF2DE9F0411E4C054620689046C2
:10C2AC001F460E46FFF7F2FF1B4B1A68D2F84831B7
:10C2BC0033B35A6820681F2A27DC4DB9911C013210
:10C2CC005A6043F82160FFF7E3FF0020BDE8F081DE
:10C2DC0003EB82010124C1F8888004FA02FED3F832
:10C2EC008841022D44EA0E0CC3F888C1C1F80871CC
:10C2FC00E4D1D3F88C114EEA0104C3F88C41DDE78C
:10C30C0002F5A673C2F84831D3E7FFF7C1FF4FF02F
:10C31C00FF30DBE7C8C7010074C30000FEE700BFB5
:0CC32C00F8B500BFF8BC08BC9E46704786
:10C3380064656661756C745461736B00000000007D
:10C3480000000000010203040607080900000000BD
:10C358000102030449444C4500000000546D72205A
:10C3680053766300546D725100000000A0C30100B1
:08C3780018BDFF7F0100000069
:04C3800000000000B9
:020000021000EC
:0CC384003D8000002D800000758000004E
:04C3900051800000D8
:10C398000024F400AAAAAAAA000000008CC6010082
:10C3A800F4C601005CC701000000000000000000A6
:10C3B8000000000000000000000000000000000075
:10C3C8000000000000000000000000000000000065
:10C3D8000000000000000000000000000000000055
:10C3E8000000000000000000000000000000000045
:10C3F8000000000000000000000000000000000035
:10C408000000000000000000000000000000000024
:10C418000000000000000000000000000000000014
:10C428000000000000000000000000000000000004
:10C4380000000000000000000000000000000000F4
:10C4480001000000000000000E33CDAB34126DE691
:10C45800ECDE05000B0000000000000000000000FA
:10C4680000000000000000000000000000000000C4
:10C4780000000000000000000000000000000000B4
:10C4880000000000000000000000000000000000A4
:10C498000000000000000000000000000000000094
:10C4A8000000000000000000000000000000000084
:10C4B8000000000000000000000000000000000074
:10C4C8000000000000000000000000000000000064
:10C4D8000000000000000000000000000000000054
:10C4E8000000000000000000000000000000000044
:10C4F8000000000000000000000000000000000034
:10C508000000000000000000000000000000000023
:10C518000000000000000000000000000000000013
:10C528000000000000000000000000000000000003
:10C5380000000000000000000000000000000000F3
:10C5480000000000000000000000000000000000E3
:10C5580000000000000000000000000000000000D3
:10C5680000000000000000000000000000000000C3
:10C5780000000000000000000000000000000000B3
:10C5880000000000000000000000000000000000A3
:10C598000000000000000000000000000000000093
:10C5A8000000000000000000000000000000000083
:10C5B8000000000000000000000000000000000073
:10C5C8000000000000000000000000000000000063
:10C5D8000000000000000000000000000000000053
:10C5E8000000000000000000000000000000000043
:10C5F8000000000000000000000000000000000033
:10C608000000000000000000000000000000000022
:10C618000000000000000000000000000000000012
:10C628000000000000000000000000000000000002
:10C6380000000000000000000000000000000000F2
:10C6480000000000000000000000000000000000E2
:10C6580000000000000000000000000000000000D2
:10C6680000000000000000000000000000000000C2
:10C6780000000000000000000000000000000000B2
:10C6880000000000000000000000000000000000A2
:10C698000000000000000000000000000000000092
:10C6A8000000000000000000000000000000000082
:10C6B8000000000000000000000000000000000072
:10C6C8000000000000000000000000000000000062
:10C6D8000000000000000000000000000000000052
:10C6E8000000000000000000000000000000000042
:10C6F8000000000000000000000000000000000032
:10C708000000000000000000000000000000000021
:10C718000000000000000000000000000000000011
:10C728000000000000000000000000000000000001
:10C7380000000000000000000000000000000000F1
:10C7480000000000000000000000000000000000E1
:10C7580000000000000000000000000000000000D1
:10C7680000000000000000000000000000000000C1
:10C7780000000000000000000000000000000000B1
:10C7880000000000000000000000000000000000A1
:10C798000000000000000000000000000000000091
:10C7A8000000000000000000000000000000000081
:10C7B8000000000000000000000000000000000071
:04C7C80078110200E2
:0400000300008091E8
:00000001FF
